"Piezo Voltage (V)";"Fine In 1 (V)";"Fine In 2 (V)";
67.032578;0.052178;0.011310;
67.064964;0.048052;0.011288;
67.097382;0.045709;0.011377;
67.129799;0.046478;0.011223;
67.162209;0.049871;0.011289;
67.194626;0.051361;0.011300;
67.227036;0.046859;0.011339;
67.259422;0.047426;0.011262;
67.291832;0.047868;0.011316;
67.324242;0.048241;0.011267;
67.356674;0.049597;0.011309;
67.389069;0.047148;0.011323;
67.421486;0.047640;0.011328;
67.453903;0.045378;0.011359;
67.486298;0.048277;0.011337;
67.518715;0.047826;0.011328;
67.551109;0.051181;0.011342;
67.583519;0.053328;0.011335;
67.615929;0.050143;0.011274;
67.648354;0.049183;0.011202;
67.680763;0.045110;0.011384;
67.713142;0.047936;0.011332;
67.745552;0.046884;0.011211;
67.777969;0.042815;0.011365;
67.810387;0.041154;0.011417;
67.842804;0.040599;0.011346;
67.875206;0.039477;0.011261;
67.907623;0.039409;0.011345;
67.940010;0.045347;0.011312;
67.972435;0.043685;0.011218;
68.004852;0.045038;0.011285;
68.037247;0.044506;0.011417;
68.069664;0.045295;0.011286;
68.102074;0.042549;0.011163;
68.134499;0.044612;0.011339;
68.166885;0.041640;0.011277;
68.199287;0.041190;0.011193;
68.231697;0.040082;0.011179;
68.264107;0.043630;0.011387;
68.296532;0.043047;0.011358;
68.328934;0.042709;0.011243;
68.361351;0.042862;0.011283;
68.393730;0.046227;0.011302;
68.426147;0.042826;0.011243;
68.458557;0.043704;0.011315;
68.490974;0.046067;0.011313;
68.523384;0.047491;0.011387;
68.555794;0.048255;0.011139;
68.588211;0.048429;0.011243;
68.620621;0.048568;0.011350;
68.653023;0.052364;0.011226;
68.685417;0.051496;0.011182;
68.717834;0.055733;0.011257;
68.750252;0.059878;0.011398;
68.782684;0.058525;0.011228;
68.815071;0.058379;0.011240;
68.847458;0.061347;0.011282;
68.879875;0.066970;0.011334;
68.912277;0.069817;0.011073;
68.944702;0.071810;0.011379;
68.977112;0.073675;0.011367;
69.009529;0.069282;0.011258;
69.041939;0.073607;0.011034;
69.074318;0.072216;0.011318;
69.106750;0.075462;0.011313;
69.139153;0.078476;0.011127;
69.171562;0.079695;0.011143;
69.203972;0.084722;0.011382;
69.236389;0.086309;0.011213;
69.268822;0.092780;0.011154;
69.301201;0.092684;0.011233;
69.333595;0.095372;0.011182;
69.366013;0.100160;0.011184;
69.398422;0.104575;0.011202;
69.430862;0.112399;0.011182;
69.463249;0.113166;0.011199;
69.495659;0.116320;0.011107;
69.528046;0.125893;0.011039;
69.560463;0.132965;0.011149;
69.592880;0.132935;0.011162;
69.625282;0.136227;0.011133;
69.657700;0.143832;0.011137;
69.690117;0.143964;0.011098;
69.722534;0.147450;0.011123;
69.754929;0.151320;0.011130;
69.787323;0.159983;0.011098;
69.819740;0.161296;0.011165;
69.852142;0.166181;0.011074;
69.884560;0.170223;0.011098;
69.916992;0.174011;0.011232;
69.949394;0.178004;0.011104;
69.981766;0.180472;0.010968;
70.014183;0.186167;0.011203;
70.046600;0.187500;0.011235;
70.079033;0.188312;0.011038;
70.111420;0.189195;0.011135;
70.143837;0.192919;0.011189;
70.176254;0.192452;0.011098;
70.208641;0.193096;0.011010;
70.241066;0.194477;0.011166;
70.273460;0.194883;0.011195;
70.305878;0.195564;0.011029;
70.338295;0.190862;0.010957;
70.370705;0.191073;0.011215;
70.403130;0.190765;0.011104;
70.435501;0.191607;0.010985;
70.467918;0.191965;0.011088;
70.500320;0.190467;0.011222;
70.532738;0.189697;0.011138;
70.565170;0.189250;0.010958;
70.597565;0.184191;0.011196;
70.629982;0.182971;0.011161;
70.662361;0.183878;0.011078;
70.694778;0.182935;0.011081;
70.727211;0.184076;0.011160;
70.759605;0.182254;0.011025;
70.792015;0.183524;0.010998;
70.824425;0.181073;0.011112;
70.856842;0.177822;0.011050;
70.889236;0.172400;0.011000;
70.921638;0.166247;0.011045;
70.954048;0.165382;0.011234;
70.986465;0.162889;0.011071;
71.018883;0.159412;0.010916;
71.051308;0.154515;0.011048;
71.083702;0.152057;0.011227;
71.116089;0.152499;0.011198;
71.148506;0.146251;0.010867;
71.180908;0.145074;0.011130;
71.213348;0.139861;0.011189;
71.245743;0.140618;0.010998;
71.278160;0.136631;0.010942;
71.310570;0.131185;0.011215;
71.342949;0.130117;0.011118;
71.375381;0.127716;0.010895;
71.407784;0.124666;0.011128;
71.440186;0.123478;0.011072;
71.472603;0.122921;0.011075;
71.505020;0.122928;0.010974;
71.537453;0.121865;0.011209;
71.569809;0.120121;0.011120;
71.602226;0.123737;0.011012;
71.634644;0.121108;0.010981;
71.667053;0.112743;0.011094;
71.699493;0.108026;0.011050;
71.731880;0.108626;0.011055;
71.764290;0.106545;0.011101;
71.796677;0.102199;0.011079;
71.829086;0.100830;0.011019;
71.861519;0.101059;0.010983;
71.893913;0.100856;0.011074;
71.926331;0.094477;0.011035;
71.958748;0.095206;0.010959;
71.991150;0.096481;0.011039;
72.023560;0.096635;0.011077;
72.055954;0.095731;0.011045;
72.088371;0.092706;0.011007;
72.120773;0.088037;0.011066;
72.153191;0.089833;0.011140;
72.185623;0.089852;0.011058;
72.218025;0.086766;0.011012;
72.250397;0.083115;0.011061;
72.282814;0.081666;0.011079;
72.315231;0.073822;0.010822;
72.347664;0.078804;0.010993;
72.380051;0.081097;0.011090;
72.412468;0.080140;0.011036;
72.444885;0.081656;0.010988;
72.477272;0.080686;0.011023;
72.509697;0.084514;0.011068;
72.542091;0.086045;0.010874;
72.574509;0.087344;0.010933;
72.606918;0.083326;0.011058;
72.639336;0.082023;0.010988;
72.671761;0.081817;0.010907;
72.704132;0.076835;0.011089;
72.736542;0.080429;0.011032;
72.768951;0.080374;0.010996;
72.801369;0.081141;0.010958;
72.833801;0.080332;0.011137;
72.866196;0.076571;0.011003;
72.898613;0.075938;0.010879;
72.930992;0.072835;0.010974;
72.963417;0.072977;0.011168;
72.995842;0.073476;0.011012;
73.028229;0.075426;0.010913;
73.060638;0.075058;0.011085;
73.093056;0.074969;0.011057;
73.125473;0.075445;0.010928;
73.157867;0.072634;0.011062;
73.190262;0.073948;0.010973;
73.222679;0.074121;0.010927;
73.255096;0.074448;0.010987;
73.287514;0.075011;0.010941;
73.319939;0.077000;0.011107;
73.352333;0.075702;0.010799;
73.384720;0.073930;0.010920;
73.417122;0.076611;0.011111;
73.449539;0.079685;0.011011;
73.481972;0.079099;0.010924;
73.514374;0.079499;0.010973;
73.546783;0.080104;0.011084;
73.579193;0.075671;0.010966;
73.611588;0.080110;0.010833;
73.644012;0.080742;0.010978;
73.676407;0.077930;0.011082;
73.708817;0.078854;0.010907;
73.741234;0.073144;0.010968;
73.773659;0.074626;0.011002;
73.806061;0.071392;0.011052;
73.838440;0.071017;0.010857;
73.870857;0.073513;0.011115;
73.903267;0.076092;0.010989;
73.935684;0.075875;0.010995;
73.968109;0.073678;0.010971;
74.000504;0.077115;0.011083;
74.032921;0.075433;0.010975;
74.065308;0.074341;0.010945;
74.097733;0.075314;0.010970;
74.130150;0.076795;0.010983;
74.162544;0.080248;0.010934;
74.194962;0.083272;0.010991;
74.227379;0.086208;0.010969;
74.259789;0.083401;0.011001;
74.292191;0.086149;0.010921;
74.324585;0.087574;0.010889;
74.356987;0.086638;0.010959;
74.389404;0.087771;0.010873;
74.421829;0.089453;0.010951;
74.454239;0.093352;0.011022;
74.486649;0.089620;0.010937;
74.519028;0.089544;0.010943;
74.551445;0.092418;0.010934;
74.583862;0.092232;0.010910;
74.616287;0.096537;0.011053;
74.648682;0.098499;0.010869;
74.681099;0.098157;0.010970;
74.713509;0.096307;0.011111;
74.745911;0.097569;0.010903;
74.778320;0.096131;0.010866;
74.810722;0.096890;0.011022;
74.843132;0.096909;0.011117;
74.875549;0.093412;0.010911;
74.907967;0.091834;0.010936;
74.940369;0.094422;0.011087;
74.972755;0.092162;0.011023;
75.005173;0.091280;0.010864;
75.037582;0.087321;0.011040;
75.070007;0.086804;0.011112;
75.102409;0.084888;0.011044;
75.134827;0.084005;0.010927;
75.167244;0.084133;0.011104;
75.199615;0.083329;0.011152;
75.232056;0.080983;0.011004;
75.264458;0.083070;0.011008;
75.296852;0.081888;0.011188;
75.329269;0.080505;0.010999;
75.361687;0.075472;0.010892;
75.394119;0.071459;0.011063;
75.426498;0.073839;0.011122;
75.458893;0.075662;0.011017;
75.491310;0.076961;0.010981;
75.523727;0.075464;0.011157;
75.556152;0.073768;0.011033;
75.588547;0.068683;0.011016;
75.620964;0.069386;0.011058;
75.653351;0.069741;0.011127;
75.685753;0.066602;0.010978;
75.718178;0.066506;0.010944;
75.750587;0.064557;0.011051;
75.782997;0.063899;0.011139;
75.815414;0.060966;0.010884;
75.847824;0.059840;0.010989;
75.880226;0.060781;0.011153;
75.912636;0.059749;0.011067;
75.945030;0.063207;0.010851;
75.977448;0.064128;0.011019;
76.009857;0.063805;0.011201;
76.042297;0.063595;0.010983;
76.074692;0.064200;0.011049;
76.107071;0.061301;0.011006;
76.139481;0.059074;0.011079;
76.171898;0.060023;0.010911;
76.204323;0.061929;0.010899;
76.236717;0.060358;0.011090;
76.269135;0.059510;0.011026;
76.301552;0.063137;0.010860;
76.333931;0.061273;0.011132;
76.366364;0.063075;0.011052;
76.398758;0.064286;0.010936;
76.431175;0.063976;0.010988;
76.463593;0.065552;0.010992;
76.495995;0.063739;0.011066;
76.528427;0.067287;0.010953;
76.560799;0.070805;0.011031;
76.593216;0.072951;0.011033;
76.625618;0.074368;0.010982;
76.658035;0.075696;0.010976;
76.690468;0.074043;0.010967;
76.722862;0.073534;0.010961;
76.755280;0.073414;0.010993;
76.787659;0.076861;0.010879;
76.820076;0.077159;0.011056;
76.852501;0.074798;0.010940;
76.884895;0.076707;0.010952;
76.917313;0.076572;0.010929;
76.949722;0.082586;0.011054;
76.982140;0.080024;0.010937;
77.014534;0.084723;0.010974;
77.046936;0.088588;0.011083;
77.079346;0.083660;0.010995;
77.111763;0.083065;0.010878;
77.144180;0.088752;0.010907;
77.176605;0.091620;0.011021;
77.209000;0.092715;0.010904;
77.241386;0.092697;0.010893;
77.273796;0.094090;0.010978;
77.306206;0.097542;0.010970;
77.338646;0.100109;0.010814;
77.371040;0.094872;0.010968;
77.403458;0.099389;0.011048;
77.435860;0.097908;0.011006;
77.468246;0.104131;0.010763;
77.500679;0.108208;0.010973;
77.533081;0.109269;0.011012;
77.565483;0.110821;0.010841;
77.597900;0.112097;0.010853;
77.630318;0.115721;0.011031;
77.662750;0.115392;0.010960;
77.695107;0.114671;0.010810;
77.727524;0.111236;0.010902;
77.759941;0.107239;0.011036;
77.792351;0.108863;0.010856;
77.824776;0.110270;0.010813;
77.857178;0.116444;0.010949;
77.889587;0.114064;0.010935;
77.921974;0.116514;0.010905;
77.954384;0.117929;0.010879;
77.986816;0.121715;0.010933;
78.019211;0.123641;0.010899;
78.051628;0.124953;0.010891;
78.084045;0.122099;0.010869;
78.116447;0.118388;0.010937;
78.148857;0.117682;0.010751;
78.181252;0.120757;0.010789;
78.213661;0.119531;0.010922;
78.246071;0.119895;0.010998;
78.278488;0.121341;0.010638;
78.310921;0.121116;0.010906;
78.343323;0.119777;0.011010;
78.375694;0.121399;0.010872;
78.408112;0.118721;0.010753;
78.440529;0.114686;0.010972;
78.472961;0.113406;0.011012;
78.505348;0.113240;0.010799;
78.537766;0.113391;0.010911;
78.570183;0.114426;0.011003;
78.602554;0.113905;0.010984;
78.634995;0.112711;0.010862;
78.667389;0.110117;0.010891;
78.699806;0.110477;0.010955;
78.732216;0.107827;0.010915;
78.764626;0.107624;0.010946;
78.797058;0.106762;0.010904;
78.829430;0.104452;0.010903;
78.861832;0.103493;0.010906;
78.894249;0.099031;0.010952;
78.926666;0.093729;0.010804;
78.959099;0.090817;0.010884;
78.991493;0.092735;0.010856;
79.023903;0.090547;0.010887;
79.056290;0.090768;0.011007;
79.088715;0.088155;0.010933;
79.121140;0.089265;0.010901;
79.153526;0.085909;0.010913;
79.185936;0.086350;0.010892;
79.218353;0.082622;0.010817;
79.250771;0.080245;0.010884;
79.283165;0.079975;0.010985;
79.315559;0.080688;0.010908;
79.347977;0.084629;0.010855;
79.380394;0.083146;0.010941;
79.412796;0.082822;0.010928;
79.445236;0.076123;0.010873;
79.477631;0.073766;0.010897;
79.510017;0.070601;0.011042;
79.542419;0.065917;0.010857;
79.574837;0.066093;0.010933;
79.607269;0.064444;0.010938;
79.639671;0.060889;0.010975;
79.672081;0.059821;0.010843;
79.704491;0.062976;0.010760;
79.736885;0.064362;0.010970;
79.769310;0.057626;0.010897;
79.801697;0.059640;0.010844;
79.834114;0.057546;0.010873;
79.866531;0.056891;0.010975;
79.898941;0.058622;0.010928;
79.931366;0.059502;0.010777;
79.963737;0.058358;0.010952;
79.996155;0.058562;0.010960;
80.028564;0.057737;0.010806;
80.060982;0.055609;0.010904;
80.093407;0.053412;0.011056;
80.125801;0.054953;0.010900;
80.158218;0.054033;0.010807;
80.190598;0.055404;0.010959;
80.223022;0.054689;0.010946;
80.255447;0.052221;0.010841;
80.287842;0.049301;0.010820;
80.320259;0.049614;0.010960;
80.352661;0.045223;0.010877;
80.385086;0.045500;0.010863;
80.417488;0.045264;0.010836;
80.449883;0.043675;0.010907;
80.482285;0.042967;0.010859;
80.514702;0.047422;0.010821;
80.547119;0.045500;0.010998;
80.579544;0.045070;0.010952;
80.611946;0.047962;0.010701;
80.644325;0.044928;0.010797;
80.676743;0.046204;0.011020;
80.709160;0.041830;0.010877;
80.741585;0.041753;0.010773;
80.773979;0.043681;0.010924;
80.806396;0.043135;0.010934;
80.838806;0.042876;0.010783;
80.871193;0.044734;0.010713;
80.903618;0.046258;0.011016;
80.936020;0.043923;0.010958;
80.968430;0.043324;0.010824;
81.000847;0.040122;0.010800;
81.033264;0.041519;0.010900;
81.065666;0.039248;0.010811;
81.098053;0.040008;0.010816;
81.130463;0.041247;0.010939;
81.162880;0.043010;0.010920;
81.195290;0.043475;0.010840;
81.227715;0.043330;0.010867;
81.260124;0.044075;0.010833;
81.292526;0.044700;0.010877;
81.324913;0.045176;0.010901;
81.357353;0.047020;0.010831;
81.389755;0.045856;0.010866;
81.422150;0.045125;0.010856;
81.454567;0.041486;0.010827;
81.486984;0.045959;0.010973;
81.519409;0.038049;0.010884;
81.551796;0.041061;0.010771;
81.584190;0.037951;0.010727;
81.616608;0.038139;0.010934;
81.649025;0.036919;0.010754;
81.681435;0.036185;0.010846;
81.713844;0.031852;0.010862;
81.746262;0.035059;0.010880;
81.778633;0.035404;0.010781;
81.811050;0.035117;0.010841;
81.843468;0.038673;0.010889;
81.875885;0.040706;0.010882;
81.908295;0.036169;0.010782;
81.940704;0.039889;0.010860;
81.973122;0.035816;0.010896;
82.005524;0.038276;0.010766;
82.037933;0.038735;0.010770;
82.070328;0.039385;0.010878;
82.102745;0.039961;0.010943;
82.135155;0.039907;0.010812;
82.167580;0.045417;0.010731;
82.199989;0.047054;0.010936;
82.232368;0.049283;0.010816;
82.264778;0.043818;0.010710;
82.297195;0.047165;0.010994;
82.329613;0.047158;0.010886;
82.362015;0.048055;0.010737;
82.394432;0.047937;0.010827;
82.426849;0.045946;0.010847;
82.459229;0.047184;0.010828;
82.491661;0.048184;0.010756;
82.524055;0.047837;0.010809;
82.556473;0.048420;0.011020;
82.588890;0.048640;0.010879;
82.621292;0.045682;0.010697;
82.653725;0.043800;0.010906;
82.686104;0.042230;0.010977;
82.718498;0.046881;0.010783;
82.750916;0.043025;0.010749;
82.783333;0.043460;0.010781;
82.815765;0.040558;0.010793;
82.848160;0.039191;0.010759;
82.880569;0.043460;0.010852;
82.912956;0.045084;0.010846;
82.945374;0.045877;0.010669;
82.977798;0.043907;0.010837;
83.010193;0.045810;0.010869;
83.042610;0.046274;0.010839;
83.075020;0.049936;0.010668;
83.107437;0.050714;0.010785;
83.139832;0.052636;0.010910;
83.172234;0.052438;0.010737;
83.204643;0.048806;0.010723;
83.237061;0.048444;0.010783;
83.269470;0.049578;0.010827;
83.301903;0.049592;0.010648;
83.334297;0.048096;0.010754;
83.366684;0.046215;0.010829;
83.399094;0.043745;0.010782;
83.431503;0.044083;0.010660;
83.463943;0.043196;0.010919;
83.501953;0.044999;0.010833;
83.528755;0.042822;0.010812;
83.561157;0.038095;0.010655;
83.593544;0.043879;0.010838;
83.625977;0.042110;0.010761;
83.658363;0.040443;0.010702;
83.690781;0.043889;0.010725;
83.723198;0.048308;0.010744;
83.755615;0.048172;0.010752;
83.788048;0.041767;0.010731;
83.820404;0.045580;0.010822;
83.852821;0.044546;0.010842;
83.885239;0.043082;0.010715;
83.917648;0.040183;0.010609;
83.950073;0.043504;0.010860;
83.982475;0.043793;0.010774;
84.014885;0.045581;0.010665;
84.047264;0.045414;0.010748;
84.079681;0.043103;0.010789;
84.112114;0.043719;0.010763;
84.144508;0.043525;0.010706;
84.176926;0.040885;0.010801;
84.209335;0.039253;0.010756;
84.241745;0.044085;0.010559;
84.274155;0.046948;0.010690;
84.306541;0.048502;0.010813;
84.338959;0.046915;0.010671;
84.371368;0.044325;0.010606;
84.403786;0.042974;0.010779;
84.436218;0.045142;0.010867;
84.468605;0.045090;0.010705;
84.500992;0.043021;0.010743;
84.533409;0.040655;0.010799;
84.565826;0.042160;0.010719;
84.598251;0.046355;0.010691;
84.630646;0.044253;0.010843;
84.663063;0.046777;0.010780;
84.695480;0.052215;0.010763;
84.727852;0.048101;0.010648;
84.760292;0.045412;0.010861;
84.792686;0.046130;0.010737;
84.825104;0.047201;0.010691;
84.857506;0.047854;0.010619;
84.889923;0.048703;0.010802;
84.922356;0.046828;0.010715;
84.954727;0.045818;0.010638;
84.987129;0.042220;0.010701;
85.019547;0.043043;0.010772;
85.051964;0.041037;0.010718;
85.084396;0.042642;0.010641;
85.116791;0.042416;0.010814;
85.149200;0.045582;0.010742;
85.181587;0.044109;0.010590;
85.213997;0.046109;0.010718;
85.246422;0.048799;0.010757;
85.278824;0.047610;0.010656;
85.311234;0.043868;0.010658;
85.343651;0.043294;0.010663;
85.376068;0.043826;0.010727;
85.408463;0.042574;0.010637;
85.440857;0.042010;0.010673;
85.473274;0.044872;0.010654;
85.505692;0.042233;0.010668;
85.538094;0.044547;0.010587;
85.570534;0.045195;0.010688;
85.602928;0.047793;0.010794;
85.635307;0.046868;0.010554;
85.667717;0.044610;0.010645;
85.700134;0.049715;0.010770;
85.732567;0.049092;0.010765;
85.764969;0.047667;0.010595;
85.797371;0.046040;0.010691;
85.829788;0.047795;0.010746;
85.862175;0.048587;0.010651;
85.894608;0.046741;0.010619;
85.926994;0.047760;0.010794;
85.959412;0.045869;0.010674;
85.991829;0.044858;0.010622;
86.024239;0.045958;0.010612;
86.056664;0.043194;0.010691;
86.089035;0.047521;0.010651;
86.121452;0.047229;0.010622;
86.153862;0.048772;0.010665;
86.186272;0.048727;0.010715;
86.218704;0.050835;0.010660;
86.251099;0.050847;0.010616;
86.283516;0.046423;0.010633;
86.315895;0.049511;0.010679;
86.348312;0.049975;0.010593;
86.380745;0.049046;0.010592;
86.413139;0.045391;0.010790;
86.445557;0.046331;0.010627;
86.477959;0.048122;0.010527;
86.510376;0.049534;0.010674;
86.542786;0.045814;0.010746;
86.575172;0.049552;0.010574;
86.607582;0.048216;0.010664;
86.639999;0.052266;0.010755;
86.672417;0.052773;0.010649;
86.704842;0.052363;0.010498;
86.737236;0.052633;0.010617;
86.769623;0.055138;0.010655;
86.802040;0.053214;0.010682;
86.834457;0.054592;0.010608;
86.866882;0.055766;0.010674;
86.899277;0.050810;0.010682;
86.931694;0.051018;0.010538;
86.964104;0.055178;0.010668;
86.996490;0.056363;0.010741;
87.028915;0.056127;0.010563;
87.061317;0.057046;0.010593;
87.093727;0.055388;0.010610;
87.126137;0.058623;0.010688;
87.158554;0.061028;0.010585;
87.190964;0.062205;0.010545;
87.223343;0.060864;0.010562;
87.255760;0.059955;0.010589;
87.288177;0.060535;0.010491;
87.320587;0.061457;0.010550;
87.353012;0.063149;0.010733;
87.385414;0.063911;0.010581;
87.417824;0.065348;0.010478;
87.450211;0.065898;0.010614;
87.482628;0.068730;0.010653;
87.515053;0.067867;0.010528;
87.547447;0.069733;0.010471;
87.579865;0.070800;0.010681;
87.612282;0.071916;0.010519;
87.644707;0.073285;0.010464;
87.677094;0.077685;0.010539;
87.709488;0.080436;0.010673;
87.741905;0.080419;0.010582;
87.774307;0.079373;0.010555;
87.806732;0.082043;0.010535;
87.839142;0.080558;0.010596;
87.871559;0.083757;0.010508;
87.903931;0.083736;0.010516;
87.936348;0.083489;0.010580;
87.968765;0.083848;0.010550;
88.001190;0.084530;0.010500;
88.033592;0.082966;0.010648;
88.066002;0.084193;0.010688;
88.098419;0.085133;0.010395;
88.130821;0.081636;0.010439;
88.163231;0.085862;0.010672;
88.195625;0.082881;0.010536;
88.228043;0.085170;0.010453;
88.260452;0.087657;0.010513;
88.292877;0.086455;0.010607;
88.325279;0.085731;0.010493;
88.357666;0.088854;0.010458;
88.390076;0.088275;0.010570;
88.422493;0.089218;0.010567;
88.454910;0.092446;0.010487;
88.487312;0.092435;0.010459;
88.519730;0.094650;0.010706;
88.552147;0.095459;0.010580;
88.584526;0.093975;0.010408;
88.616936;0.092669;0.010571;
88.649361;0.090993;0.010568;
88.681770;0.092440;0.010528;
88.714172;0.092845;0.010520;
88.746590;0.090654;0.010553;
88.779022;0.089977;0.010372;
88.811401;0.088781;0.010456;
88.843796;0.092899;0.010438;
88.876213;0.095940;0.010554;
88.908630;0.092796;0.010511;
88.941055;0.093080;0.010447;
88.973457;0.093288;0.010512;
89.005867;0.092656;0.010558;
89.038254;0.093014;0.010460;
89.070671;0.090725;0.010507;
89.103081;0.092259;0.010499;
89.135490;0.088895;0.010523;
89.167908;0.089154;0.010465;
89.200317;0.090456;0.010488;
89.232735;0.091073;0.010456;
89.265129;0.091572;0.010504;
89.297539;0.090099;0.010397;
89.329941;0.090413;0.010575;
89.362358;0.087165;0.010599;
89.394768;0.085801;0.010339;
89.427200;0.088261;0.010465;
89.459595;0.086000;0.010462;
89.491974;0.089198;0.010523;
89.524391;0.086111;0.010323;
89.556801;0.087364;0.010519;
89.589226;0.085632;0.010464;
89.621635;0.084536;0.010356;
89.654037;0.084115;0.010393;
89.686455;0.084957;0.010544;
89.718842;0.084749;0.010466;
89.751266;0.086045;0.010360;
89.783661;0.087341;0.010410;
89.816078;0.090112;0.010530;
89.848495;0.088745;0.010380;
89.880913;0.086160;0.010345;
89.913338;0.091086;0.010377;
89.945709;0.089228;0.010376;
89.978119;0.089950;0.010364;
90.010536;0.095322;0.010288;
90.042938;0.099402;0.010416;
90.075371;0.100052;0.010286;
90.107773;0.101430;0.010226;
90.140182;0.103631;0.010214;
90.172562;0.108242;0.010263;
90.204979;0.112797;0.010108;
90.237404;0.115469;0.010041;
90.269806;0.120847;0.010169;
90.302216;0.122212;0.010102;
90.334633;0.130823;0.010059;
90.367050;0.136571;0.009983;
90.399452;0.143853;0.010101;
90.431839;0.151902;0.009933;
90.464256;0.158194;0.009847;
90.496674;0.166246;0.009899;
90.529083;0.174847;0.009835;
90.561523;0.188772;0.009683;
90.593910;0.200172;0.009639;
90.626297;0.210267;0.009753;
90.658707;0.220186;0.009634;
90.691116;0.228202;0.009415;
90.723549;0.243202;0.009627;
90.755943;0.252715;0.009586;
90.788361;0.264241;0.009431;
90.820778;0.275833;0.009290;
90.853157;0.284202;0.009469;
90.885590;0.301235;0.009423;
90.917984;0.316384;0.009306;
90.950401;0.332044;0.009225;
90.982803;0.342196;0.009321;
91.015221;0.350492;0.009259;
91.047653;0.369344;0.009086;
91.080017;0.375135;0.009156;
91.112427;0.382264;0.009275;
91.144844;0.390980;0.009149;
91.177261;0.400079;0.009151;
91.209694;0.400748;0.009179;
91.242081;0.407372;0.009129;
91.274498;0.415674;0.009047;
91.306885;0.418514;0.009106;
91.339302;0.421260;0.009143;
91.371727;0.427410;0.009082;
91.404121;0.427359;0.009088;
91.436539;0.428391;0.009140;
91.468948;0.432671;0.009195;
91.501366;0.431343;0.008973;
91.533760;0.424396;0.009087;
91.566162;0.424575;0.009103;
91.598572;0.421012;0.009125;
91.630981;0.420452;0.009015;
91.663399;0.410898;0.009104;
91.695831;0.403019;0.009145;
91.728226;0.402576;0.009115;
91.760605;0.397608;0.009142;
91.793022;0.392650;0.009198;
91.825432;0.387909;0.009139;
91.857872;0.383602;0.009072;
91.890266;0.379157;0.009095;
91.922668;0.372124;0.009144;
91.955086;0.365960;0.009132;
91.987473;0.359264;0.009009;
92.019897;0.357824;0.009156;
92.052292;0.357148;0.009252;
92.084709;0.349062;0.009035;
92.117126;0.346173;0.008951;
92.149544;0.341598;0.009147;
92.181969;0.336713;0.009134;
92.214333;0.333233;0.009042;
92.246750;0.331426;0.009140;
92.279167;0.329818;0.009149;
92.311569;0.327998;0.009009;
92.344002;0.321429;0.008967;
92.376404;0.316904;0.009202;
92.408813;0.314098;0.009223;
92.441193;0.310507;0.009090;
92.473610;0.311201;0.009100;
92.506042;0.311757;0.009102;
92.538437;0.309497;0.009119;
92.570847;0.306809;0.009015;
92.603264;0.305340;0.009069;
92.635674;0.303032;0.009143;
92.668076;0.298258;0.009068;
92.700470;0.303680;0.009044;
92.732887;0.302625;0.009091;
92.765297;0.302271;0.009218;
92.797714;0.304352;0.008928;
92.830139;0.303249;0.009033;
92.862534;0.300903;0.009174;
92.894920;0.302429;0.009138;
92.927338;0.304662;0.009011;
92.959747;0.304131;0.009131;
92.992180;0.307924;0.009222;
93.024574;0.307661;0.009091;
93.056992;0.308956;0.009111;
93.089409;0.305955;0.009147;
93.121796;0.307690;0.009103;
93.154221;0.311705;0.008945;
93.186615;0.312437;0.009113;
93.219017;0.314896;0.009227;
93.251434;0.316966;0.009137;
93.283852;0.316877;0.008981;
93.316277;0.318691;0.009201;
93.348640;0.323152;0.009168;
93.381058;0.330681;0.009078;
93.413475;0.335016;0.009054;
93.445892;0.339188;0.009158;
93.478317;0.343751;0.009108;
93.510712;0.347932;0.009051;
93.543129;0.354569;0.009119;
93.575516;0.362004;0.009169;
93.607918;0.369139;0.009055;
93.640350;0.374492;0.009041;
93.672752;0.380968;0.009095;
93.705162;0.387526;0.009088;
93.737579;0.393118;0.009094;
93.769997;0.397617;0.009131;
93.802391;0.406140;0.009158;
93.834785;0.415509;0.009056;
93.867203;0.423397;0.009067;
93.899612;0.439456;0.009111;
93.932022;0.449185;0.009121;
93.964447;0.462213;0.009072;
93.996857;0.472470;0.009082;
94.029236;0.480610;0.009168;
94.061646;0.494187;0.009117;
94.094063;0.509640;0.008974;
94.126488;0.524287;0.009109;
94.158882;0.542114;0.009151;
94.191299;0.552467;0.009064;
94.223717;0.569473;0.009047;
94.256111;0.588214;0.009068;
94.288528;0.601863;0.009159;
94.320923;0.619443;0.009040;
94.353340;0.637786;0.009118;
94.385757;0.656114;0.009115;
94.418182;0.673855;0.009094;
94.450577;0.691713;0.009057;
94.482964;0.712802;0.009178;
94.515381;0.737125;0.009168;
94.547783;0.759185;0.009052;
94.580200;0.784699;0.009088;
94.612625;0.810293;0.009126;
94.645027;0.832482;0.009133;
94.677444;0.853951;0.009060;
94.709824;0.877446;0.009027;
94.742241;0.903955;0.009187;
94.774666;0.926312;0.009114;
94.807068;0.953405;0.009043;
94.839478;0.979537;0.009128;
94.871887;1.002139;0.009166;
94.904327;1.022646;0.009048;
94.936699;1.043712;0.009106;
94.969101;1.067000;0.009245;
95.001511;1.089454;0.009251;
95.033928;1.104170;0.009062;
95.066353;1.122095;0.009166;
95.098747;1.132257;0.009345;
95.131165;1.142987;0.009288;
95.163551;1.149948;0.009200;
95.195969;1.152044;0.009304;
95.228371;1.156532;0.009450;
95.260796;1.154043;0.009288;
95.293205;1.153706;0.009418;
95.325623;1.146976;0.009598;
95.358032;1.143271;0.009550;
95.390434;1.131110;0.009522;
95.422836;1.115662;0.009692;
95.455246;1.096818;0.009636;
95.487648;1.074234;0.009689;
95.520065;1.055376;0.009659;
95.552498;1.030484;0.009821;
95.584892;1.002161;0.009852;
95.617271;0.971383;0.009809;
95.649689;0.936424;0.009952;
95.682106;0.906956;0.009963;
95.714531;0.874573;0.009938;
95.746925;0.840818;0.009760;
95.779343;0.807516;0.010146;
95.811729;0.778829;0.010061;
95.844139;0.742035;0.010018;
95.876549;0.709188;0.009988;
95.908974;0.670938;0.010133;
95.941376;0.641579;0.010105;
95.973793;0.611386;0.010078;
96.006210;0.582783;0.010105;
96.038605;0.549932;0.010248;
96.071014;0.524303;0.010061;
96.103416;0.498701;0.009983;
96.135826;0.469038;0.010208;
96.168236;0.438175;0.010091;
96.200676;0.414193;0.010021;
96.233070;0.393742;0.010068;
96.265450;0.372181;0.010201;
96.297859;0.353295;0.010180;
96.330276;0.331482;0.010138;
96.362701;0.311409;0.010133;
96.395111;0.296121;0.010227;
96.427513;0.278113;0.010076;
96.459930;0.260428;0.010112;
96.492317;0.246291;0.010128;
96.524742;0.231829;0.010223;
96.557137;0.216090;0.010196;
96.589554;0.205184;0.010141;
96.621971;0.196736;0.010271;
96.654381;0.186213;0.010084;
96.686806;0.177666;0.010077;
96.719185;0.165921;0.010173;
96.751595;0.152334;0.010190;
96.784004;0.145152;0.010273;
96.816414;0.138024;0.010122;
96.848846;0.134157;0.010203;
96.881241;0.128053;0.010138;
96.913658;0.120990;0.010132;
96.946037;0.123372;0.010201;
96.978455;0.117125;0.010257;
97.010880;0.108448;0.010129;
97.043282;0.103926;0.010046;
97.075691;0.098585;0.010277;
97.108101;0.095269;0.010143;
97.140518;0.090129;0.010095;
97.172928;0.088313;0.010140;
97.205315;0.083505;0.010207;
97.237724;0.080486;0.010137;
97.270142;0.076364;0.010110;
97.302559;0.073675;0.010230;
97.334991;0.075385;0.010130;
97.367378;0.077080;0.010037;
97.399765;0.077384;0.010006;
97.432182;0.076404;0.010225;
97.464584;0.072165;0.010082;
97.497025;0.071779;0.009965;
97.529419;0.071785;0.010041;
97.561836;0.068541;0.010203;
97.594246;0.066309;0.010049;
97.626625;0.066358;0.010087;
97.659058;0.068370;0.010087;
97.691460;0.063727;0.010212;
97.723869;0.063349;0.010001;
97.756279;0.060038;0.010032;
97.788696;0.059756;0.010196;
97.821129;0.061921;0.010079;
97.853485;0.063111;0.009980;
97.885902;0.060762;0.010076;
97.918320;0.057130;0.010263;
97.950729;0.059633;0.009942;
97.983170;0.060342;0.009943;
98.015556;0.059194;0.010154;
98.047966;0.054510;0.010085;
98.080353;0.055259;0.009968;
98.112770;0.055201;0.010125;
98.145195;0.055685;0.010195;
98.177589;0.054206;0.010090;
98.210007;0.053420;0.010084;
98.242424;0.055557;0.009986;
98.274841;0.053064;0.010106;
98.307236;0.054066;0.010019;
98.339630;0.051796;0.009923;
98.372047;0.052680;0.010246;
98.404449;0.050845;0.010067;
98.436867;0.055582;0.010012;
98.469299;0.054181;0.010045;
98.501701;0.052491;0.010137;
98.534073;0.050192;0.009995;
98.566490;0.047119;0.009899;
98.598907;0.045876;0.010096;
98.631340;0.041841;0.010145;
98.663727;0.050423;0.009978;
98.696144;0.051864;0.010032;
98.728561;0.048544;0.010114;
98.760948;0.047980;0.010008;
98.793373;0.047344;0.010019;
98.825768;0.048226;0.010115;
98.858185;0.046169;0.010136;
98.890594;0.049061;0.009945;
98.923012;0.047004;0.010055;
98.955437;0.047277;0.009992;
98.987808;0.048212;0.010095;
99.020218;0.046503;0.009965;
99.052628;0.045458;0.010005;
99.085045;0.046537;0.010075;
99.117477;0.046660;0.010015;
99.149872;0.049940;0.010013;
99.182289;0.050587;0.010035;
99.214668;0.051559;0.010042;
99.247078;0.052678;0.009909;
99.279518;0.051314;0.010014;
99.311913;0.051204;0.010012;
99.344315;0.057156;0.010004;
99.376732;0.051930;0.010032;
99.409149;0.050464;0.010095;
99.441544;0.047734;0.009990;
99.473938;0.048048;0.009957;
99.506355;0.047540;0.010017;
99.538773;0.048212;0.010034;
99.571190;0.048234;0.010045;
99.603615;0.046705;0.009924;
99.636009;0.047890;0.009901;
99.668396;0.048759;0.010124;
99.700813;0.047002;0.009985;
99.733215;0.043985;0.009886;
99.765648;0.044741;0.010007;
99.798050;0.039436;0.010024;
99.830460;0.044053;0.009910;
99.862877;0.045909;0.009895;
99.895256;0.045536;0.009990;
99.927689;0.046268;0.009983;
99.960083;0.043577;0.009797;
99.992493;0.045332;0.009911;
