"Piezo Voltage (V)";"Fine In 1 (V)";"Fine In 2 (V)";
67.032532;0.047726;0.011414;
67.064934;0.043099;0.011259;
67.097351;0.042869;0.011478;
67.129730;0.042618;0.011421;
67.162148;0.038448;0.011297;
67.194572;0.037450;0.011284;
67.226974;0.036013;0.011378;
67.259384;0.034882;0.011407;
67.291794;0.035003;0.011251;
67.324211;0.036387;0.011429;
67.356621;0.038120;0.011448;
67.389023;0.037987;0.011402;
67.421417;0.035277;0.011292;
67.453835;0.033445;0.011494;
67.486252;0.035307;0.011406;
67.518684;0.035186;0.011252;
67.551071;0.034841;0.011342;
67.583458;0.040365;0.011409;
67.615875;0.041535;0.011334;
67.648277;0.042968;0.011257;
67.680702;0.043230;0.011450;
67.713112;0.042494;0.011452;
67.745529;0.042951;0.011345;
67.777939;0.043450;0.011390;
67.810318;0.041484;0.011453;
67.842751;0.039611;0.011273;
67.875153;0.037288;0.011278;
67.907562;0.038069;0.011295;
67.939972;0.037024;0.011448;
67.972389;0.036363;0.011206;
68.004822;0.038197;0.011217;
68.037201;0.041259;0.011311;
68.069595;0.041333;0.011329;
68.102013;0.038118;0.011204;
68.134422;0.031752;0.011293;
68.166862;0.031766;0.011414;
68.199249;0.031807;0.011324;
68.231659;0.035038;0.011214;
68.264046;0.032365;0.011362;
68.296463;0.034161;0.011401;
68.328880;0.038130;0.011218;
68.361282;0.038763;0.011268;
68.393700;0.035108;0.011395;
68.426117;0.034676;0.011365;
68.458534;0.038935;0.011192;
68.490929;0.041906;0.011304;
68.523323;0.041621;0.011391;
68.555740;0.036529;0.011280;
68.588142;0.036889;0.011245;
68.620560;0.037729;0.011354;
68.652992;0.036201;0.011340;
68.685394;0.036791;0.011256;
68.717766;0.038780;0.011241;
68.750183;0.040816;0.011417;
68.782600;0.039578;0.011306;
68.815033;0.041715;0.011295;
68.847427;0.040206;0.011296;
68.879837;0.039908;0.011347;
68.912254;0.041442;0.011249;
68.944641;0.043918;0.011259;
68.977066;0.042698;0.011405;
69.009460;0.042452;0.011373;
69.041878;0.043732;0.011224;
69.074287;0.039820;0.011225;
69.106705;0.039808;0.011383;
69.139130;0.042574;0.011312;
69.171501;0.047297;0.011167;
69.203911;0.046209;0.011298;
69.236328;0.044364;0.011405;
69.268738;0.045769;0.011269;
69.301170;0.044965;0.011285;
69.333565;0.045584;0.011355;
69.365982;0.049796;0.011292;
69.398361;0.051451;0.011110;
69.430771;0.054533;0.011251;
69.463211;0.052486;0.011308;
69.495605;0.054587;0.011177;
69.528008;0.054685;0.011196;
69.560425;0.054652;0.011307;
69.592842;0.054731;0.011320;
69.625244;0.056737;0.011204;
69.657631;0.058979;0.011266;
69.690048;0.059141;0.011341;
69.722466;0.058127;0.011363;
69.754883;0.057393;0.011160;
69.787315;0.059424;0.011253;
69.819702;0.062687;0.011349;
69.852089;0.064520;0.011216;
69.884506;0.067777;0.011173;
69.916908;0.067445;0.011350;
69.949341;0.071081;0.011254;
69.981743;0.074028;0.011203;
70.014153;0.074514;0.011170;
70.046570;0.076921;0.011227;
70.078949;0.078369;0.011217;
70.111382;0.080044;0.011063;
70.143776;0.079498;0.011341;
70.176186;0.081207;0.011280;
70.208603;0.083104;0.011132;
70.241013;0.087482;0.011195;
70.273453;0.085993;0.011275;
70.305809;0.088869;0.011099;
70.338226;0.089576;0.011093;
70.370644;0.093007;0.011221;
70.403053;0.091882;0.011257;
70.435493;0.096092;0.011046;
70.467880;0.097177;0.011188;
70.500290;0.102604;0.011218;
70.532677;0.105521;0.011173;
70.565086;0.104989;0.011118;
70.597519;0.111673;0.011193;
70.629913;0.109411;0.011291;
70.662331;0.108798;0.011150;
70.694748;0.111355;0.011287;
70.727150;0.114448;0.011214;
70.759560;0.120921;0.011174;
70.791954;0.122889;0.011036;
70.824371;0.123859;0.011223;
70.856773;0.122561;0.011203;
70.889191;0.116327;0.011169;
70.921623;0.121995;0.011092;
70.954025;0.122569;0.011275;
70.986397;0.123650;0.011187;
71.018814;0.122496;0.011151;
71.051231;0.124098;0.011005;
71.083664;0.123434;0.011339;
71.116051;0.125840;0.011180;
71.148468;0.125469;0.011102;
71.180885;0.126712;0.011145;
71.213272;0.122934;0.011320;
71.245697;0.125552;0.011226;
71.278091;0.127565;0.011058;
71.310509;0.127872;0.011252;
71.342918;0.130102;0.011279;
71.375336;0.131431;0.011123;
71.407761;0.129579;0.011131;
71.440132;0.130596;0.011257;
71.472542;0.130608;0.011120;
71.504951;0.132571;0.011082;
71.537369;0.130801;0.011209;
71.569801;0.125709;0.011253;
71.602196;0.129428;0.011123;
71.634613;0.128715;0.011091;
71.666992;0.129102;0.011182;
71.699417;0.124214;0.011271;
71.731842;0.124155;0.010983;
71.764236;0.122303;0.011115;
71.796638;0.123133;0.011196;
71.829056;0.121084;0.011078;
71.861481;0.125103;0.011032;
71.893867;0.121507;0.011182;
71.926262;0.126518;0.011199;
71.958679;0.126897;0.011161;
71.991096;0.122071;0.011164;
72.023514;0.117572;0.011247;
72.055939;0.117086;0.011134;
72.088333;0.117188;0.011112;
72.120720;0.119162;0.011164;
72.153137;0.115927;0.011294;
72.185539;0.116319;0.011131;
72.217972;0.117411;0.011027;
72.250374;0.114612;0.011198;
72.282784;0.107208;0.011191;
72.315201;0.108572;0.011030;
72.347588;0.110306;0.011107;
72.380013;0.108254;0.011248;
72.412407;0.106255;0.011100;
72.444817;0.109678;0.011144;
72.477234;0.110010;0.011198;
72.509659;0.105741;0.011222;
72.542061;0.105343;0.011069;
72.574440;0.103711;0.011014;
72.606857;0.103597;0.011189;
72.639267;0.104824;0.011168;
72.671684;0.104228;0.011032;
72.704109;0.104485;0.011051;
72.736504;0.103446;0.011244;
72.768921;0.101609;0.011016;
72.801308;0.103497;0.011037;
72.833733;0.103585;0.011151;
72.866150;0.100350;0.011130;
72.898544;0.103207;0.010963;
72.930962;0.098935;0.011046;
72.963379;0.100876;0.011146;
72.995789;0.096339;0.011149;
73.028191;0.092845;0.010987;
73.060585;0.096590;0.011215;
73.092987;0.097148;0.011167;
73.125404;0.095279;0.011053;
73.157829;0.099848;0.011158;
73.190239;0.096499;0.011226;
73.222649;0.095076;0.011147;
73.255028;0.098444;0.010975;
73.287445;0.097125;0.011123;
73.319862;0.098187;0.011192;
73.352287;0.098803;0.011086;
73.384682;0.093858;0.011010;
73.417099;0.092494;0.011154;
73.449509;0.093767;0.011208;
73.481911;0.090295;0.011101;
73.514320;0.093087;0.011060;
73.546722;0.090848;0.011274;
73.579132;0.089204;0.011117;
73.611549;0.087897;0.011081;
73.643967;0.087223;0.011066;
73.676369;0.087251;0.011162;
73.708755;0.079324;0.011077;
73.741173;0.080331;0.011060;
73.773582;0.082247;0.011200;
73.806007;0.080775;0.011156;
73.838409;0.075182;0.010981;
73.870827;0.073490;0.011119;
73.903244;0.073375;0.011278;
73.935616;0.076529;0.011103;
73.968056;0.072981;0.011010;
74.000458;0.071282;0.011126;
74.032852;0.074719;0.011182;
74.065269;0.076831;0.010991;
74.097687;0.075660;0.011016;
74.130119;0.070490;0.011146;
74.162498;0.071145;0.011134;
74.194893;0.071576;0.010897;
74.227310;0.068965;0.011221;
74.259727;0.067664;0.011134;
74.292152;0.065243;0.011140;
74.324547;0.065866;0.010969;
74.356964;0.068075;0.011126;
74.389351;0.064745;0.011106;
74.421753;0.066119;0.011056;
74.454178;0.065706;0.011070;
74.486588;0.061948;0.011245;
74.518997;0.061866;0.011141;
74.551414;0.059437;0.011054;
74.583824;0.058315;0.011209;
74.616226;0.056569;0.011182;
74.648636;0.056346;0.011096;
74.681038;0.056980;0.011087;
74.713448;0.055746;0.011269;
74.745857;0.051645;0.011070;
74.778297;0.055255;0.011047;
74.810692;0.054434;0.011218;
74.843071;0.053684;0.011126;
74.875481;0.051554;0.011092;
74.907898;0.050348;0.011004;
74.940323;0.050637;0.011105;
74.972717;0.046161;0.011161;
75.005135;0.045378;0.011089;
75.037552;0.044929;0.010936;
75.069939;0.041904;0.011302;
75.102364;0.041762;0.011112;
75.134758;0.043061;0.011091;
75.167175;0.045307;0.011105;
75.199593;0.047324;0.011232;
75.232002;0.048398;0.010967;
75.264427;0.046969;0.011060;
75.296806;0.042538;0.011149;
75.329216;0.042483;0.011113;
75.361618;0.043848;0.010927;
75.394035;0.042948;0.011001;
75.426468;0.038562;0.011155;
75.458862;0.038446;0.011111;
75.491280;0.038394;0.010998;
75.523659;0.039504;0.011105;
75.556076;0.039280;0.011202;
75.588501;0.040871;0.011102;
75.620903;0.040765;0.011108;
75.653313;0.042925;0.011191;
75.685722;0.043501;0.011173;
75.718140;0.041927;0.011003;
75.750534;0.040995;0.011099;
75.782936;0.043451;0.011073;
75.815346;0.042642;0.011094;
75.847763;0.041734;0.010924;
75.880180;0.039977;0.011254;
75.912605;0.040128;0.011159;
75.945000;0.040763;0.011068;
75.977386;0.041371;0.011009;
76.009796;0.044429;0.011155;
76.042206;0.047191;0.011019;
76.074646;0.043240;0.010994;
76.107040;0.039666;0.011135;
76.139458;0.041937;0.011126;
76.171860;0.041350;0.010980;
76.204247;0.042220;0.010939;
76.236679;0.040326;0.011167;
76.269081;0.040882;0.011091;
76.301483;0.042204;0.011043;
76.333900;0.038827;0.011050;
76.366318;0.035766;0.011134;
76.398750;0.042020;0.011004;
76.431107;0.044205;0.011005;
76.463524;0.042864;0.011091;
76.495941;0.042612;0.011140;
76.528351;0.038242;0.010946;
76.560776;0.041448;0.010981;
76.593178;0.040491;0.011093;
76.625587;0.042183;0.011095;
76.657974;0.040491;0.010948;
76.690384;0.043717;0.011071;
76.722816;0.045241;0.011071;
76.755211;0.045238;0.010916;
76.787628;0.043342;0.010903;
76.820045;0.049200;0.011150;
76.852448;0.047362;0.011050;
76.884857;0.042353;0.010916;
76.917252;0.044785;0.011099;
76.949661;0.046510;0.011060;
76.982071;0.048464;0.011026;
77.014488;0.046022;0.010885;
77.046921;0.050738;0.011158;
77.079323;0.048572;0.011005;
77.111694;0.045940;0.011031;
77.144112;0.044411;0.010911;
77.176529;0.043719;0.011150;
77.208961;0.047916;0.011029;
77.241348;0.050117;0.010944;
77.273766;0.049806;0.011103;
77.306183;0.048763;0.011319;
77.338554;0.049839;0.010958;
77.370995;0.050286;0.010944;
77.403389;0.052002;0.011075;
77.435806;0.054264;0.011073;
77.468216;0.056361;0.010909;
77.500626;0.052222;0.010941;
77.533058;0.049945;0.011111;
77.565430;0.050206;0.010937;
77.597839;0.053232;0.010895;
77.630249;0.052434;0.010997;
77.662666;0.051495;0.011125;
77.695099;0.053255;0.010924;
77.727493;0.051157;0.010962;
77.759911;0.049547;0.011030;
77.792290;0.051805;0.011064;
77.824715;0.056740;0.010828;
77.857140;0.058563;0.011011;
77.889526;0.058323;0.011094;
77.921936;0.058786;0.010996;
77.954353;0.055100;0.010923;
77.986771;0.052317;0.010953;
78.019165;0.054634;0.011050;
78.051559;0.050589;0.010905;
78.083977;0.052264;0.010920;
78.116394;0.056779;0.011081;
78.148811;0.053305;0.010957;
78.181236;0.050426;0.010852;
78.213631;0.050292;0.011012;
78.246017;0.052487;0.011110;
78.278419;0.050117;0.010935;
78.310837;0.054192;0.010903;
78.343269;0.060484;0.010947;
78.375671;0.055558;0.011023;
78.408081;0.055601;0.010853;
78.440491;0.050057;0.010990;
78.472885;0.050650;0.011018;
78.505310;0.048826;0.011004;
78.537697;0.051123;0.010930;
78.570114;0.051885;0.011128;
78.602531;0.053076;0.011078;
78.634941;0.047274;0.010926;
78.667366;0.048596;0.010903;
78.699738;0.046231;0.011020;
78.732155;0.042686;0.010972;
78.764565;0.043159;0.010769;
78.796982;0.040812;0.010971;
78.829407;0.043158;0.011022;
78.861801;0.044656;0.010865;
78.894218;0.040525;0.010856;
78.926598;0.042558;0.010987;
78.959023;0.043072;0.011098;
78.991447;0.041066;0.010938;
79.023842;0.043500;0.010958;
79.056259;0.046594;0.010981;
79.088661;0.043721;0.010999;
79.121086;0.048444;0.010805;
79.153488;0.048364;0.010999;
79.185883;0.045463;0.010997;
79.218285;0.043743;0.010878;
79.250702;0.045307;0.010993;
79.283119;0.046260;0.010988;
79.315544;0.045112;0.011071;
79.347946;0.045016;0.010823;
79.380325;0.042339;0.010949;
79.412743;0.044889;0.010986;
79.445160;0.042570;0.011008;
79.477585;0.047854;0.010807;
79.509979;0.048750;0.011018;
79.542397;0.046998;0.010944;
79.574806;0.041519;0.010863;
79.607193;0.039763;0.010884;
79.639618;0.033711;0.010949;
79.672020;0.040530;0.010882;
79.704430;0.040395;0.010852;
79.736847;0.039328;0.010941;
79.769264;0.039923;0.011046;
79.801666;0.041177;0.010945;
79.834053;0.038487;0.010883;
79.866463;0.038256;0.010971;
79.898880;0.038956;0.010967;
79.931290;0.037539;0.010932;
79.963715;0.037676;0.010878;
79.996124;0.039629;0.010992;
80.028526;0.037738;0.010875;
80.060913;0.041257;0.010799;
80.093353;0.044466;0.010899;
80.125755;0.044936;0.010979;
80.158150;0.046030;0.010822;
80.190567;0.044084;0.010833;
80.222984;0.043295;0.010991;
80.255409;0.045150;0.010984;
80.287796;0.044882;0.010783;
80.320190;0.042981;0.010903;
80.352608;0.040352;0.010977;
80.385025;0.036704;0.010919;
80.417435;0.038228;0.010879;
80.449844;0.037973;0.010942;
80.482262;0.034248;0.010920;
80.514648;0.030879;0.010722;
80.547050;0.033138;0.010927;
80.579468;0.034160;0.010937;
80.611885;0.032130;0.010896;
80.644295;0.035863;0.010821;
80.676712;0.038841;0.010933;
80.709122;0.037708;0.010964;
80.741524;0.031822;0.010827;
80.773933;0.034469;0.010816;
80.806328;0.037647;0.010937;
80.838745;0.036110;0.010949;
80.871155;0.035781;0.010780;
80.903580;0.036691;0.010857;
80.935989;0.039166;0.011043;
80.968369;0.036589;0.010837;
81.000778;0.037664;0.010743;
81.033195;0.037143;0.010945;
81.065620;0.036902;0.010838;
81.098015;0.040665;0.010785;
81.130432;0.040114;0.010829;
81.162849;0.039475;0.011024;
81.195229;0.040508;0.010839;
81.227661;0.040033;0.010819;
81.260056;0.036303;0.010865;
81.292473;0.035620;0.010935;
81.324890;0.036259;0.010763;
81.357292;0.036709;0.010775;
81.389725;0.039107;0.010903;
81.422104;0.036079;0.011012;
81.454498;0.038867;0.010811;
81.486916;0.035771;0.010837;
81.519333;0.034950;0.010904;
81.551765;0.035701;0.010871;
81.584160;0.036572;0.010849;
81.616570;0.035379;0.010892;
81.648956;0.036676;0.011029;
81.681374;0.036988;0.010803;
81.713799;0.038095;0.010720;
81.746193;0.039783;0.010932;
81.778610;0.036088;0.010917;
81.811020;0.034139;0.010708;
81.843437;0.034848;0.010965;
81.875832;0.032890;0.010963;
81.908234;0.034945;0.010905;
81.940643;0.036371;0.010724;
81.973061;0.035693;0.010843;
82.005470;0.041560;0.010852;
82.037903;0.045578;0.010805;
82.070297;0.045910;0.010805;
82.102684;0.042853;0.010989;
82.135094;0.041529;0.010866;
82.167503;0.040800;0.010783;
82.199944;0.038699;0.010912;
82.232338;0.036616;0.010937;
82.264755;0.039542;0.010802;
82.297157;0.038248;0.010733;
82.329544;0.041462;0.010979;
82.361977;0.043213;0.010835;
82.394363;0.042939;0.010768;
82.426781;0.035289;0.010790;
82.459198;0.032742;0.011016;
82.491615;0.034243;0.010796;
82.524048;0.031081;0.010740;
82.556404;0.030449;0.010814;
82.588821;0.032665;0.010884;
82.621239;0.036684;0.010743;
82.653648;0.037339;0.010676;
82.686073;0.041060;0.010883;
82.718475;0.040629;0.010865;
82.750885;0.036842;0.010692;
82.783264;0.038284;0.010804;
82.815681;0.037679;0.010924;
82.848114;0.039916;0.010715;
82.880508;0.036209;0.010573;
82.912926;0.035010;0.010879;
82.945335;0.035018;0.010807;
82.977745;0.035728;0.010708;
83.010155;0.038991;0.010825;
83.042549;0.037890;0.010908;
83.074959;0.034510;0.010809;
83.107368;0.037250;0.010754;
83.139786;0.033806;0.010817;
83.172218;0.035876;0.010845;
83.204620;0.035619;0.010785;
83.236992;0.035379;0.010737;
83.269409;0.037282;0.010934;
83.301826;0.037316;0.010847;
83.334251;0.034891;0.010695;
83.366646;0.035619;0.010821;
83.399063;0.034767;0.010826;
83.431480;0.038986;0.010764;
83.463852;0.038202;0.010694;
83.501953;0.039540;0.010820;
83.528687;0.039045;0.010832;
83.561104;0.036267;0.010662;
83.593513;0.034822;0.010717;
83.625923;0.032909;0.010966;
83.658356;0.031928;0.010763;
83.690727;0.033542;0.010687;
83.723129;0.032206;0.010854;
83.755547;0.035403;0.010960;
83.787964;0.037497;0.010609;
83.820396;0.037616;0.010716;
83.852791;0.039762;0.010811;
83.885201;0.039464;0.010791;
83.917587;0.038871;0.010555;
83.949997;0.039554;0.010740;
83.982437;0.042132;0.010778;
84.014824;0.039961;0.010732;
84.047234;0.037869;0.010663;
84.079651;0.039039;0.010772;
84.112068;0.042022;0.010761;
84.144463;0.039055;0.010748;
84.176857;0.036943;0.010699;
84.209274;0.036738;0.010845;
84.241692;0.035948;0.010836;
84.274094;0.039613;0.010664;
84.306534;0.035393;0.010747;
84.338928;0.034463;0.010766;
84.371307;0.039018;0.010781;
84.403717;0.036287;0.010658;
84.436134;0.036301;0.010807;
84.468567;0.032777;0.010761;
84.500969;0.038699;0.010668;
84.533371;0.035272;0.010692;
84.565788;0.036634;0.010878;
84.598175;0.035953;0.010743;
84.630608;0.036658;0.010726;
84.662994;0.038775;0.010720;
84.695412;0.040383;0.010783;
84.727829;0.036574;0.010688;
84.760239;0.041228;0.010645;
84.792664;0.040835;0.010795;
84.825035;0.038833;0.010676;
84.857452;0.035807;0.010638;
84.889862;0.037616;0.010695;
84.922272;0.038173;0.010821;
84.954704;0.040837;0.010730;
84.987099;0.040586;0.010638;
85.019516;0.039206;0.010792;
85.051895;0.037662;0.010800;
85.084320;0.040694;0.010692;
85.116745;0.039943;0.010703;
85.149139;0.038409;0.010829;
85.181557;0.036389;0.010725;
85.213959;0.034909;0.010594;
85.246376;0.037037;0.010782;
85.278786;0.033116;0.010825;
85.311172;0.032190;0.010664;
85.343582;0.032157;0.010730;
85.375999;0.034100;0.010771;
85.408417;0.031009;0.010759;
85.440842;0.031823;0.010656;
85.473236;0.034560;0.010660;
85.505623;0.039831;0.010729;
85.538040;0.042544;0.010678;
85.570457;0.042617;0.010620;
85.602882;0.043862;0.010716;
85.635277;0.043770;0.010681;
85.667694;0.048818;0.010663;
85.700104;0.043305;0.010663;
85.732491;0.043851;0.010838;
85.764915;0.041643;0.010676;
85.797318;0.039095;0.010674;
85.829727;0.038932;0.010723;
85.862137;0.038310;0.010788;
85.894554;0.038062;0.010722;
85.926964;0.037833;0.010587;
85.959351;0.038435;0.010789;
85.991760;0.041430;0.010577;
86.024178;0.040458;0.010524;
86.056587;0.044949;0.010633;
86.089012;0.042273;0.010764;
86.121422;0.044375;0.010636;
86.153824;0.041933;0.010676;
86.186211;0.043838;0.010677;
86.218651;0.039619;0.010847;
86.251053;0.038733;0.010562;
86.283447;0.040718;0.010616;
86.315865;0.040777;0.010696;
86.348282;0.040592;0.010768;
86.380707;0.043595;0.010479;
86.413094;0.038943;0.010674;
86.445488;0.035743;0.010754;
86.477905;0.034471;0.010669;
86.510323;0.037272;0.010589;
86.542725;0.036222;0.010690;
86.575142;0.038078;0.010745;
86.607559;0.040541;0.010595;
86.639931;0.036730;0.010635;
86.672348;0.037682;0.010679;
86.704765;0.041288;0.010698;
86.737190;0.043748;0.010532;
86.769592;0.043320;0.010840;
86.802002;0.039483;0.010652;
86.834419;0.041593;0.010588;
86.866821;0.040125;0.010648;
86.899231;0.041647;0.010691;
86.931625;0.039832;0.010670;
86.964043;0.038314;0.010530;
86.996452;0.036293;0.010665;
87.028877;0.034070;0.010708;
87.061279;0.031616;0.010520;
87.093666;0.033602;0.010611;
87.126076;0.036233;0.010628;
87.158493;0.036698;0.010596;
87.190910;0.036378;0.010520;
87.223312;0.041489;0.010553;
87.255730;0.044100;0.010682;
87.288147;0.043861;0.010589;
87.320526;0.039503;0.010545;
87.352959;0.045137;0.010612;
87.385361;0.043932;0.010701;
87.417770;0.042859;0.010563;
87.450172;0.041022;0.010600;
87.482590;0.044352;0.010712;
87.515022;0.043331;0.010642;
87.547401;0.045890;0.010515;
87.579796;0.047621;0.010582;
87.612213;0.045386;0.010687;
87.644630;0.045931;0.010569;
87.677055;0.047020;0.010485;
87.709457;0.046715;0.010650;
87.741867;0.045253;0.010647;
87.774254;0.042835;0.010485;
87.806671;0.045247;0.010606;
87.839081;0.049359;0.010687;
87.871490;0.052498;0.010633;
87.903908;0.047971;0.010410;
87.936317;0.048836;0.010678;
87.968735;0.049861;0.010710;
88.001129;0.049872;0.010587;
88.033539;0.048353;0.010584;
88.065941;0.042348;0.010673;
88.098358;0.046618;0.010585;
88.130768;0.048188;0.010442;
88.163200;0.050676;0.010574;
88.195595;0.045442;0.010660;
88.227974;0.045110;0.010648;
88.260391;0.046199;0.010500;
88.292801;0.044620;0.010573;
88.325226;0.043815;0.010514;
88.357635;0.044243;0.010476;
88.390038;0.046614;0.010524;
88.422455;0.046079;0.010638;
88.454842;0.048362;0.010570;
88.487274;0.050317;0.010498;
88.519661;0.049991;0.010600;
88.552078;0.054779;0.010615;
88.584496;0.052154;0.010488;
88.616913;0.048364;0.010555;
88.649345;0.047225;0.010562;
88.681709;0.051183;0.010592;
88.714119;0.049390;0.010491;
88.746536;0.048645;0.010585;
88.778938;0.049649;0.010674;
88.811371;0.051804;0.010578;
88.843773;0.048474;0.010497;
88.876183;0.049236;0.010609;
88.908562;0.046736;0.010583;
88.940979;0.046474;0.010482;
88.973412;0.043534;0.010580;
89.005806;0.047144;0.010710;
89.038223;0.045689;0.010569;
89.070633;0.045621;0.010472;
89.103043;0.045041;0.010548;
89.135452;0.046879;0.010694;
89.167839;0.050423;0.010486;
89.200256;0.047258;0.010512;
89.232666;0.049015;0.010607;
89.265083;0.047625;0.010558;
89.297516;0.045158;0.010455;
89.329903;0.045428;0.010525;
89.362289;0.045992;0.010551;
89.394707;0.044521;0.010544;
89.427124;0.047581;0.010459;
89.459549;0.046050;0.010635;
89.491943;0.047064;0.010598;
89.524361;0.047895;0.010467;
89.556778;0.044242;0.010465;
89.589149;0.043559;0.010618;
89.621590;0.044696;0.010524;
89.653984;0.045937;0.010413;
89.686401;0.048478;0.010581;
89.718803;0.051281;0.010527;
89.751221;0.048951;0.010447;
89.783653;0.046103;0.010487;
89.816025;0.042364;0.010587;
89.848427;0.048342;0.010627;
89.880844;0.048663;0.010363;
89.913261;0.050644;0.010483;
89.945694;0.051426;0.010542;
89.978081;0.044185;0.010454;
90.010498;0.045350;0.010440;
90.042885;0.047910;0.010487;
90.075294;0.048562;0.010557;
90.107719;0.045956;0.010487;
90.140121;0.046381;0.010461;
90.172531;0.045755;0.010652;
90.204948;0.047713;0.010472;
90.237366;0.051819;0.010336;
90.269760;0.050860;0.010518;
90.302162;0.051485;0.010481;
90.334572;0.056413;0.010392;
90.366982;0.055798;0.010336;
90.399399;0.062347;0.010560;
90.431831;0.061691;0.010405;
90.464226;0.062292;0.010346;
90.496605;0.063138;0.010244;
90.529022;0.063402;0.010465;
90.561432;0.070373;0.010345;
90.593872;0.075131;0.010288;
90.626266;0.079054;0.010325;
90.658669;0.080643;0.010333;
90.691086;0.084459;0.010215;
90.723473;0.088113;0.010216;
90.755898;0.095801;0.010353;
90.788292;0.099936;0.010150;
90.820709;0.105780;0.010108;
90.853127;0.105437;0.010055;
90.885544;0.117883;0.010180;
90.917969;0.126788;0.009915;
90.950333;0.138776;0.010022;
90.982750;0.148600;0.010069;
91.015167;0.155614;0.010111;
91.047569;0.165006;0.009863;
91.080002;0.174233;0.009881;
91.112404;0.183742;0.010001;
91.144814;0.196454;0.009834;
91.177193;0.212607;0.009732;
91.209610;0.223450;0.009847;
91.242043;0.239106;0.009815;
91.274437;0.255661;0.009634;
91.306847;0.277029;0.009596;
91.339264;0.300578;0.009639;
91.371674;0.318477;0.009710;
91.404083;0.333778;0.009496;
91.436470;0.351364;0.009630;
91.468887;0.369873;0.009701;
91.501297;0.389351;0.009517;
91.533714;0.411930;0.009391;
91.566139;0.433135;0.009589;
91.598534;0.457273;0.009530;
91.630920;0.477352;0.009460;
91.663338;0.496726;0.009358;
91.695747;0.518965;0.009525;
91.728180;0.539210;0.009334;
91.760574;0.559826;0.009230;
91.792992;0.579442;0.009262;
91.825409;0.600565;0.009341;
91.857780;0.622159;0.009274;
91.890221;0.642002;0.009139;
91.922615;0.665527;0.009213;
91.955032;0.689785;0.009245;
91.987434;0.704763;0.009140;
92.019852;0.720099;0.009141;
92.052277;0.740776;0.009205;
92.084641;0.757888;0.009109;
92.117058;0.771907;0.009020;
92.149475;0.791546;0.009145;
92.181892;0.805684;0.009243;
92.214317;0.821235;0.008898;
92.246712;0.835308;0.009051;
92.279129;0.853960;0.009113;
92.311516;0.866513;0.009137;
92.343941;0.877185;0.009002;
92.376350;0.894567;0.009070;
92.408752;0.899577;0.009237;
92.441162;0.914138;0.009064;
92.473579;0.924991;0.009069;
92.506004;0.934902;0.009109;
92.538391;0.945467;0.009148;
92.570786;0.955738;0.009051;
92.603203;0.961867;0.008979;
92.635612;0.970755;0.009141;
92.668022;0.980813;0.009017;
92.700447;0.992294;0.008953;
92.732857;1.000621;0.009121;
92.765236;1.008684;0.009168;
92.797646;1.017395;0.009000;
92.830063;1.030826;0.008976;
92.862488;1.040489;0.009179;
92.894882;1.050460;0.009099;
92.927299;1.059762;0.008974;
92.959717;1.066624;0.009150;
92.992111;1.073724;0.009144;
93.024529;1.081788;0.009059;
93.056923;1.092583;0.009028;
93.089340;1.102888;0.009031;
93.121758;1.114034;0.009142;
93.154182;1.123224;0.009014;
93.186577;1.136536;0.009023;
93.218964;1.149711;0.009186;
93.251381;1.162160;0.009040;
93.283783;1.177723;0.009037;
93.316200;1.193761;0.009126;
93.348625;1.205184;0.009171;
93.381027;1.220818;0.009005;
93.413445;1.236688;0.009055;
93.445824;1.254246;0.009093;
93.478256;1.269181;0.009024;
93.510666;1.284478;0.008849;
93.543068;1.295870;0.009085;
93.575478;1.311539;0.009124;
93.607887;1.326632;0.009113;
93.640327;1.343391;0.008954;
93.672699;1.361390;0.009154;
93.705101;1.383280;0.009275;
93.737511;1.402717;0.009007;
93.769928;1.416159;0.009135;
93.802353;1.431946;0.009195;
93.834747;1.446928;0.009225;
93.867165;1.460538;0.008943;
93.899551;1.475187;0.009245;
93.931969;1.491438;0.009164;
93.964371;1.505809;0.009167;
93.996796;1.518297;0.009140;
94.029205;1.526990;0.009304;
94.061623;1.538605;0.009273;
94.094032;1.549836;0.009137;
94.126434;1.557644;0.009329;
94.158836;1.564013;0.009374;
94.191246;1.566259;0.009246;
94.223648;1.570663;0.009139;
94.256065;1.571335;0.009396;
94.288498;1.571968;0.009435;
94.320892;1.566928;0.009312;
94.353271;1.563850;0.009296;
94.385689;1.554005;0.009550;
94.418106;1.543335;0.009462;
94.450531;1.534538;0.009433;
94.482933;1.521336;0.009552;
94.515343;1.502256;0.009718;
94.547752;1.485269;0.009503;
94.580139;1.462929;0.009620;
94.612564;1.436694;0.009673;
94.644974;1.414173;0.009727;
94.677376;1.382482;0.009613;
94.709793;1.354930;0.009670;
94.742210;1.322671;0.009827;
94.774635;1.295740;0.009798;
94.807014;1.261925;0.009715;
94.839417;1.227468;0.009894;
94.871834;1.192050;0.009960;
94.904236;1.151965;0.009792;
94.936676;1.113778;0.009867;
94.969070;1.071436;0.010027;
95.001488;1.032397;0.010042;
95.033859;0.997593;0.009954;
95.066277;0.962331;0.010064;
95.098701;0.919115;0.010090;
95.131111;0.878422;0.010043;
95.163513;0.843222;0.010052;
95.195930;0.806283;0.010141;
95.228348;0.771231;0.010187;
95.260750;0.735072;0.009991;
95.293144;0.700023;0.010069;
95.325554;0.663480;0.010271;
95.357971;0.628332;0.010174;
95.390381;0.594889;0.010123;
95.422821;0.566092;0.010200;
95.455208;0.533701;0.010350;
95.487595;0.500653;0.010130;
95.520004;0.474881;0.010073;
95.552414;0.451067;0.010247;
95.584846;0.427471;0.010122;
95.617241;0.400645;0.010139;
95.649658;0.374946;0.010133;
95.682076;0.353879;0.010225;
95.714455;0.332422;0.010189;
95.746887;0.314990;0.010092;
95.779282;0.298128;0.010300;
95.811691;0.281839;0.010243;
95.844101;0.263409;0.010212;
95.876518;0.248153;0.010180;
95.908951;0.232822;0.010292;
95.941315;0.216529;0.010184;
95.973724;0.201604;0.010105;
96.006142;0.192989;0.010173;
96.038559;0.180063;0.010271;
96.070992;0.166105;0.010208;
96.103378;0.159241;0.010154;
96.135796;0.149538;0.010342;
96.168182;0.139906;0.010214;
96.200584;0.132922;0.010104;
96.233025;0.123031;0.010214;
96.265419;0.116230;0.010294;
96.297836;0.111557;0.010162;
96.330246;0.105080;0.010177;
96.362656;0.101049;0.010320;
96.395058;0.096841;0.010269;
96.427460;0.092237;0.010154;
96.459869;0.087880;0.010145;
96.492279;0.081988;0.010289;
96.524696;0.080379;0.010153;
96.557129;0.079608;0.010021;
96.589523;0.075378;0.010134;
96.621902;0.072833;0.010347;
96.654320;0.069644;0.010147;
96.686729;0.066866;0.010047;
96.719170;0.064276;0.010270;
96.751556;0.063753;0.010311;
96.783966;0.060883;0.010080;
96.816383;0.061415;0.010135;
96.848770;0.059652;0.010331;
96.881195;0.057785;0.010101;
96.913589;0.059819;0.010159;
96.946007;0.056646;0.010096;
96.978424;0.053822;0.010295;
97.010841;0.055564;0.010037;
97.043266;0.052914;0.010143;
97.075630;0.053717;0.010168;
97.108047;0.054381;0.010143;
97.140450;0.053303;0.010074;
97.172867;0.054515;0.010077;
97.205299;0.052871;0.010195;
97.237701;0.053698;0.010158;
97.270111;0.048164;0.010069;
97.302490;0.052111;0.010103;
97.334908;0.049479;0.010171;
97.367340;0.051365;0.010098;
97.399734;0.047512;0.010088;
97.432144;0.046790;0.010173;
97.464561;0.044778;0.010279;
97.496971;0.040826;0.010003;
97.529373;0.043159;0.010187;
97.561768;0.041513;0.010193;
97.594185;0.046631;0.010129;
97.626595;0.042943;0.010063;
97.659012;0.043755;0.010277;
97.691437;0.043706;0.010178;
97.723831;0.044046;0.010040;
97.756218;0.040793;0.010180;
97.788635;0.037803;0.010157;
97.821045;0.038041;0.010046;
97.853477;0.039524;0.010037;
97.885872;0.041243;0.010087;
97.918289;0.044621;0.010255;
97.950706;0.043559;0.010056;
97.983078;0.039491;0.009966;
98.015518;0.039114;0.010151;
98.047913;0.037744;0.010115;
98.080315;0.038874;0.010048;
98.112732;0.037172;0.010052;
98.145149;0.036207;0.010129;
98.177574;0.039367;0.010012;
98.209938;0.041403;0.010037;
98.242355;0.040158;0.010146;
98.274773;0.038127;0.010099;
98.307190;0.040104;0.010039;
98.339615;0.039062;0.010030;
98.372009;0.039691;0.010138;
98.404427;0.041907;0.010140;
98.436813;0.038453;0.009987;
98.469215;0.038978;0.010039;
98.501648;0.035971;0.010091;
98.534050;0.035846;0.009941;
98.566460;0.037524;0.009966;
98.598877;0.033719;0.010039;
98.631287;0.033835;0.010113;
98.663689;0.036349;0.009944;
98.696083;0.037853;0.010040;
98.728493;0.040725;0.010157;
98.760910;0.040979;0.009964;
98.793320;0.038918;0.009963;
98.825745;0.040122;0.010071;
98.858154;0.038091;0.010135;
98.890533;0.038476;0.010013;
98.922943;0.040311;0.009991;
98.955360;0.041099;0.010030;
98.987793;0.037192;0.010026;
99.020180;0.035977;0.009929;
99.052597;0.037474;0.010045;
99.085014;0.037541;0.010130;
99.117401;0.037241;0.010029;
99.149826;0.040482;0.009935;
99.182220;0.038454;0.010075;
99.214638;0.037867;0.010086;
99.247055;0.039244;0.009936;
99.279457;0.038725;0.009980;
99.311882;0.044177;0.010086;
99.344261;0.045558;0.009919;
99.376678;0.046825;0.009969;
99.409081;0.043799;0.009977;
99.441498;0.042217;0.010069;
99.473923;0.044418;0.009896;
99.506325;0.045631;0.009939;
99.538742;0.046114;0.010040;
99.571121;0.046722;0.010044;
99.603539;0.044483;0.009869;
99.635971;0.045121;0.010008;
99.668358;0.044858;0.010029;
99.700775;0.044483;0.009101;
99.733185;0.063707;0.008938;
99.765610;0.091870;0.009089;
99.797997;0.124161;0.009196;
99.830399;0.158999;0.008920;
99.862808;0.187245;0.009008;
99.895226;0.219507;0.009065;
99.927643;0.250683;0.009061;
99.960060;0.280078;0.008935;
99.992462;0.309185;0.009046;
