"Piezo Voltage (V)";"Fine In 1 (V)";"Fine In 2 (V)";
67.032578;0.854688;3.743510;
67.064964;0.833774;3.740584;
67.097382;0.819988;3.738532;
67.129799;0.806807;3.736549;
67.162209;0.790423;3.734920;
67.194626;0.783627;3.733830;
67.227005;0.772798;3.733112;
67.259422;0.764252;3.731537;
67.291832;0.752203;3.729610;
67.324242;0.743328;3.728199;
67.356674;0.735052;3.727214;
67.389069;0.729014;3.726032;
67.421486;0.722799;3.724203;
67.453865;0.714354;3.722302;
67.486298;0.712576;3.721237;
67.518715;0.702630;3.720147;
67.551109;0.698389;3.718560;
67.583519;0.694646;3.716388;
67.615929;0.692558;3.714796;
67.648354;0.689025;3.713722;
67.680756;0.685490;3.712135;
67.713142;0.684724;3.709912;
67.745552;0.679613;3.708331;
67.777969;0.672587;3.707480;
67.810387;0.673503;3.706083;
67.842804;0.668833;3.703800;
67.875206;0.666950;3.702351;
67.907593;0.668144;3.700666;
67.940010;0.666776;3.699082;
67.972412;0.665115;3.697287;
68.004852;0.665702;3.695786;
68.037247;0.663819;3.694482;
68.069664;0.665977;3.692310;
68.102074;0.668575;3.690707;
68.134476;0.668634;3.689130;
68.166885;0.665933;3.687963;
68.199287;0.664787;3.686054;
68.231697;0.662756;3.684515;
68.264107;0.666046;3.683038;
68.296532;0.665793;3.681324;
68.328934;0.669239;3.680140;
68.361313;0.677591;3.678609;
68.393730;0.681704;3.676434;
68.426147;0.684798;3.674780;
68.458557;0.689515;3.673821;
68.490974;0.694360;3.672217;
68.523384;0.698906;3.670373;
68.555794;0.703934;3.669063;
68.588181;0.710877;3.667820;
68.620621;0.717186;3.666075;
68.653023;0.724831;3.664045;
68.685417;0.727829;3.662586;
68.717834;0.742462;3.661701;
68.750252;0.756823;3.659546;
68.782684;0.771896;3.657740;
68.815063;0.789930;3.656470;
68.847458;0.807653;3.655545;
68.879875;0.824238;3.653071;
68.912277;0.843979;3.650932;
68.944702;0.864197;3.650331;
68.977112;0.889308;3.649246;
69.009529;0.918733;3.646491;
69.041901;0.947099;3.644998;
69.074318;0.980025;3.644067;
69.106743;1.015085;3.642364;
69.139153;1.055336;3.639867;
69.171562;1.098557;3.638473;
69.203972;1.144744;3.637591;
69.236389;1.194441;3.635604;
69.268791;1.250827;3.633072;
69.301201;1.309001;3.631844;
69.333595;1.374892;3.630993;
69.366013;1.447887;3.628916;
69.398422;1.517935;3.626331;
69.430862;1.597612;3.625337;
69.463249;1.685120;3.624224;
69.495636;1.781235;3.621500;
69.528046;1.885086;3.619539;
69.560463;1.996549;3.618574;
69.592880;2.119565;3.617026;
69.625282;2.244309;3.614658;
69.657700;2.384873;3.612532;
69.690117;2.528512;3.611837;
69.722496;2.687326;3.609362;
69.754929;2.856743;3.607021;
69.787323;3.034897;3.605382;
69.819740;3.224849;3.604107;
69.852142;3.426459;3.601854;
69.884560;3.650482;3.599594;
69.916992;3.880777;3.598157;
69.949371;4.103875;3.596732;
69.981766;4.103875;3.594618;
70.014183;4.103875;3.592472;
70.046600;4.103875;3.590913;
70.079033;4.103875;3.589417;
70.111420;4.103875;3.587087;
70.143837;4.103875;3.585188;
70.176224;4.103875;3.583714;
70.208641;4.103875;3.581755;
70.241051;4.103875;3.579188;
70.273460;4.103875;3.577341;
70.305878;4.103875;3.576227;
70.338295;4.103875;3.574206;
70.370705;4.103875;3.571411;
70.403107;4.103875;3.569629;
70.435501;4.103875;3.568273;
70.467918;4.103875;3.566000;
70.500320;4.103875;3.563465;
70.532738;4.103875;3.561448;
70.565170;4.103875;3.559671;
70.597565;4.103875;3.557247;
70.629944;4.103875;3.554878;
70.662361;4.103875;3.553035;
70.694778;4.103875;3.551246;
70.727211;4.103875;3.548421;
70.759605;4.103875;3.546175;
70.792015;4.103875;3.544518;
70.824425;4.103875;3.542644;
70.856812;4.103875;3.539254;
70.889236;4.103875;3.537092;
70.921638;4.103875;3.535949;
70.954048;4.103875;3.533576;
70.986465;4.103875;3.530555;
71.018883;4.103875;3.528809;
71.051308;4.103875;3.527229;
71.083672;4.103875;3.524264;
71.116089;4.103875;3.521731;
71.148506;4.103875;3.520733;
71.180908;4.103875;3.518731;
71.213348;4.103875;3.515013;
71.245743;4.103875;3.513055;
71.278160;4.103875;3.512447;
71.310532;4.103875;3.509999;
71.342949;4.103875;3.506659;
71.375381;4.103875;3.505331;
71.407784;4.103875;3.504216;
71.440186;4.103875;3.501071;
71.472603;4.103875;3.498737;
71.505020;4.103875;3.497752;
71.537422;4.103875;3.496040;
71.569809;4.103875;3.492451;
71.602226;4.103875;3.491067;
71.634644;4.103875;3.490852;
71.667053;4.103875;3.487914;
71.699493;4.103875;3.484648;
71.731880;4.103875;3.484136;
71.764267;4.103875;3.483423;
71.796677;4.103875;3.480189;
71.829086;4.103875;3.478082;
71.861519;4.103875;3.477970;
71.893913;4.103875;3.475801;
71.926331;4.103875;3.472885;
71.958748;4.103875;3.472559;
71.991127;4.103875;3.471561;
72.023560;4.103875;3.468239;
72.055954;4.103875;3.465865;
72.088371;4.103875;3.466082;
72.120773;4.103875;3.464998;
72.153191;4.103875;3.461842;
72.185623;4.103875;3.460673;
72.217987;4.103875;3.460129;
72.250397;4.103875;3.458038;
72.282814;4.103875;3.455472;
72.315231;4.103875;3.455042;
72.347664;4.103875;3.453780;
72.380051;4.103875;3.451181;
72.412468;4.103875;3.449916;
72.444855;4.103875;3.449731;
72.477272;4.103875;3.447975;
72.509697;4.103875;3.445374;
72.542091;4.103875;3.444594;
72.574509;4.103875;3.444327;
72.606918;4.103875;3.442028;
72.639336;4.103875;3.440130;
72.671730;4.103875;3.439708;
72.704132;4.103875;3.438211;
72.736542;4.103875;3.436125;
72.768951;4.103875;3.435039;
72.801369;4.103875;3.434594;
72.833801;4.103875;3.432673;
72.866196;4.103875;3.430482;
72.898575;4.103875;3.429780;
72.930992;4.103875;3.429060;
72.963402;4.103875;3.426998;
72.995842;4.103875;3.424935;
73.028229;4.103875;3.424615;
73.060638;4.103875;3.423290;
73.093056;4.103875;3.421291;
73.125443;4.103875;3.419887;
73.157867;4.103875;3.419439;
73.190262;4.103875;3.417400;
73.222679;4.103875;3.415112;
73.255096;4.103875;3.414735;
73.287514;4.103875;3.414095;
73.319939;4.103875;3.411683;
73.352303;4.103875;3.410187;
73.384720;4.103875;3.409996;
73.417122;4.103875;3.408409;
73.449539;4.103875;3.405884;
73.481972;4.103875;3.405027;
73.514374;4.103875;3.404263;
73.546783;4.103875;3.401920;
73.579163;4.103875;3.400222;
73.611588;4.103875;3.399908;
73.644012;4.103875;3.398460;
73.676407;4.103875;3.395530;
73.708817;4.103875;3.394495;
73.741234;4.103875;3.394385;
73.773659;4.103875;3.392131;
73.806046;4.103875;3.389636;
73.838440;4.103875;3.389094;
73.870857;4.103875;3.387833;
73.903267;4.103875;3.385045;
73.935684;4.103875;3.383986;
73.968109;4.103875;3.383844;
74.000504;4.103875;3.380900;
74.032890;4.103875;3.378672;
74.065308;4.103875;3.378350;
74.097717;4.103875;3.377245;
74.130150;4.103875;3.374215;
74.162544;4.103875;3.372608;
74.194962;4.103875;3.372526;
74.227379;4.103875;3.370364;
74.259766;4.103875;3.367585;
74.292191;4.103875;3.367064;
74.324585;4.103875;3.366015;
74.356987;4.103875;3.362807;
74.389404;4.103875;3.361043;
74.421829;4.103875;3.360890;
74.454239;4.103875;3.358693;
74.486610;4.103875;3.355628;
74.519028;4.103875;3.355081;
74.551445;3.946555;3.353603;
74.583862;3.753647;3.350544;
74.616287;3.556657;3.349004;
74.648682;3.366835;3.348583;
74.681099;3.177268;3.346077;
74.713486;3.000210;3.343093;
74.745911;2.837140;3.342403;
74.778320;2.677900;3.341411;
74.810722;2.527046;3.338025;
74.843132;2.383827;3.336391;
74.875549;2.254710;3.335963;
74.907967;2.132873;3.333451;
74.940361;2.022488;3.330612;
74.972755;1.918949;3.329964;
75.005173;1.820320;3.328501;
75.037582;1.727040;3.325423;
75.070007;1.644877;3.324096;
75.102409;1.564987;3.323667;
75.134827;1.494139;3.320448;
75.167206;1.424088;3.318208;
75.199615;1.361162;3.317600;
75.232033;1.300755;3.316277;
75.264458;1.250893;3.312956;
75.296852;1.201974;3.311912;
75.329269;1.155684;3.311213;
75.361687;1.116547;3.308234;
75.394089;1.076979;3.305949;
75.426498;1.043814;3.305486;
75.458893;1.012365;3.303896;
75.491310;0.985409;3.300488;
75.523727;0.958497;3.299698;
75.556152;0.932511;3.299161;
75.588547;0.914197;3.296160;
75.620934;0.896059;3.293637;
75.653351;0.872806;3.293296;
75.685753;0.861589;3.291479;
75.718178;0.847096;3.288328;
75.750587;0.836367;3.287400;
75.782997;0.823565;3.286179;
75.815414;0.817164;3.283401;
75.847794;0.809831;3.281319;
75.880226;0.806022;3.280772;
75.912636;0.803440;3.278737;
75.945030;0.802487;3.275724;
75.977448;0.797388;3.275011;
76.009857;0.799032;3.273838;
76.042297;0.796929;3.270506;
76.074669;0.803764;3.268640;
76.107071;0.808991;3.268027;
76.139481;0.817902;3.265748;
76.171898;0.821190;3.262687;
76.204323;0.831007;3.262214;
76.236717;0.836967;3.260976;
76.269135;0.849635;3.257824;
76.301521;0.862766;3.256020;
76.333931;0.872318;3.255317;
76.366356;0.883049;3.252660;
76.398758;0.900064;3.249605;
76.431175;0.915239;3.249365;
76.463593;0.936556;3.247825;
76.495995;0.953130;3.244257;
76.528404;0.975063;3.242863;
76.560799;0.991523;3.242477;
76.593216;1.012479;3.239244;
76.625618;1.032630;3.236566;
76.658035;1.054934;3.236540;
76.690468;1.078525;3.234653;
76.722862;1.105160;3.230865;
76.755241;1.125726;3.229984;
76.787659;1.152143;3.229459;
76.820076;1.176929;3.226342;
76.852501;1.207148;3.223526;
76.884895;1.234131;3.223483;
76.917313;1.263020;3.221397;
76.949722;1.295001;3.217929;
76.982109;1.324619;3.216983;
77.014534;1.354671;3.216153;
77.046936;1.386411;3.212535;
77.079346;1.420015;3.211175;
77.111763;1.444597;3.210553;
77.144180;1.475204;3.207735;
77.176605;1.503054;3.205204;
77.208969;1.534068;3.204420;
77.241386;1.560176;3.202995;
77.273796;1.588066;3.199610;
77.306206;1.618004;3.198402;
77.338646;1.648462;3.197556;
77.371040;1.669793;3.194180;
77.403458;1.694442;3.193019;
77.435829;1.723067;3.191852;
77.468246;1.746254;3.189176;
77.500679;1.767196;3.186346;
77.533081;1.792377;3.185531;
77.565483;1.810111;3.184011;
77.597900;1.830351;3.180717;
77.630318;1.846162;3.179306;
77.662712;1.860647;3.178597;
77.695107;1.877013;3.175566;
77.727524;1.891933;3.173179;
77.759941;1.900255;3.172786;
77.792351;1.915271;3.170444;
77.824776;1.922909;3.167560;
77.857178;1.928979;3.166607;
77.889565;1.932809;3.165238;
77.921974;1.930078;3.162207;
77.954384;1.933198;3.160352;
77.986816;1.929353;3.159729;
78.019211;1.924694;3.157091;
78.051628;1.917377;3.154563;
78.084045;1.909976;3.153885;
78.116425;1.902770;3.151925;
78.148857;1.890423;3.148758;
78.181252;1.882732;3.147434;
78.213661;1.869330;3.146712;
78.246071;1.853639;3.143501;
78.278488;1.837984;3.140965;
78.310921;1.822354;3.140836;
78.343285;1.801236;3.138459;
78.375694;1.774879;3.135101;
78.408112;1.752886;3.134457;
78.440529;1.728513;3.133465;
78.472961;1.707708;3.130344;
78.505348;1.682141;3.128286;
78.537766;1.656108;3.128200;
78.570152;1.626556;3.125109;
78.602554;1.602238;3.122354;
78.634995;1.578123;3.121817;
78.667389;1.551505;3.120161;
78.699806;1.520963;3.116739;
78.732216;1.492374;3.115483;
78.764626;1.463263;3.114595;
78.797028;1.431401;3.111504;
78.829430;1.398641;3.109589;
78.861832;1.367341;3.108970;
78.894249;1.336313;3.106388;
78.926666;1.309624;3.103702;
78.959099;1.276925;3.102898;
78.991493;1.246986;3.100969;
79.023872;1.222141;3.097912;
79.056290;1.191648;3.096575;
79.088699;1.166516;3.095752;
79.121140;1.139640;3.092445;
79.153526;1.111659;3.090244;
79.185936;1.087620;3.090015;
79.218353;1.059625;3.087360;
79.250732;1.026272;3.084357;
79.283165;1.000299;3.083752;
79.315559;0.979881;3.081985;
79.347977;0.958612;3.078453;
79.380394;0.939228;3.077731;
79.412796;0.914017;3.076859;
79.445236;0.892853;3.073113;
79.477600;0.873985;3.071272;
79.510017;0.852012;3.071032;
79.542419;0.832788;3.068059;
79.574837;0.820754;3.065012;
79.607269;0.803646;3.064790;
79.639671;0.784391;3.062938;
79.672081;0.772682;3.059019;
79.704460;0.762372;3.058005;
79.736885;0.743805;3.057420;
79.769310;0.731456;3.053588;
79.801697;0.718967;3.051718;
79.834114;0.708700;3.051781;
79.866531;0.698921;3.048819;
79.898941;0.685277;3.045713;
79.931343;0.681166;3.045259;
79.963737;0.666072;3.043376;
79.996155;0.656902;3.039620;
80.028564;0.646881;3.038970;
80.060982;0.641701;3.037931;
80.093407;0.633122;3.034247;
80.125801;0.628258;3.032514;
80.158188;0.624556;3.032030;
80.190598;0.617973;3.029225;
80.223015;0.610466;3.026499;
80.255447;0.606361;3.025973;
80.287842;0.601299;3.023778;
80.320259;0.591520;3.020630;
80.352661;0.589603;3.019801;
80.385063;0.581754;3.018435;
80.417488;0.580268;3.014466;
80.449883;0.574561;3.013079;
80.482285;0.570913;3.012640;
80.514702;0.570229;3.009041;
80.547119;0.567826;3.006679;
80.579544;0.563024;3.006513;
80.611908;0.560669;3.003593;
80.644325;0.557617;3.000731;
80.676743;0.559634;3.000220;
80.709160;0.555796;2.998440;
80.741585;0.554041;2.994735;
80.773979;0.551180;2.993731;
80.806396;0.548965;2.992685;
80.838783;0.543500;2.989181;
80.871193;0.544964;2.987161;
80.903618;0.541791;2.987192;
80.936020;0.538274;2.983807;
80.968430;0.534890;2.980714;
81.000847;0.534845;2.980824;
81.033264;0.531458;2.978524;
81.065659;0.530879;2.975197;
81.098053;0.529219;2.974196;
81.130463;0.525022;2.973731;
81.162880;0.525624;2.969734;
81.195290;0.526735;2.968089;
81.227715;0.527940;2.967849;
81.260124;0.531055;2.964435;
81.292503;0.529344;2.961722;
81.324913;0.529567;2.961899;
81.357330;0.531245;2.959022;
81.389755;0.530836;2.956010;
81.422150;0.528801;2.955748;
81.454567;0.531321;2.953954;
81.486984;0.529493;2.950695;
81.519371;0.528583;2.949566;
81.551796;0.523905;2.948533;
81.584190;0.523887;2.944903;
81.616608;0.528405;2.943342;
81.649025;0.524189;2.942803;
81.681435;0.521636;2.939520;
81.713844;0.522287;2.937149;
81.746231;0.519638;2.936918;
81.778633;0.522000;2.934101;
81.811050;0.521507;2.930975;
81.843468;0.521233;2.930513;
81.875885;0.521525;2.929013;
81.908295;0.525610;2.925266;
81.940704;0.522496;2.924438;
81.973091;0.520138;2.923349;
82.005524;0.523272;2.919816;
82.037933;0.524073;2.917980;
82.070328;0.523911;2.917890;
82.102745;0.523456;2.914571;
82.135155;0.519746;2.911735;
82.167580;0.523522;2.911739;
82.199966;0.519973;2.909399;
82.232368;0.517210;2.905936;
82.264778;0.515926;2.904990;
82.297195;0.517315;2.903898;
82.329613;0.518381;2.900206;
82.362015;0.520003;2.898701;
82.394432;0.521421;2.897465;
82.426819;0.518598;2.894141;
82.459229;0.523627;2.892073;
82.491653;0.519025;2.891675;
82.524055;0.516817;2.888569;
82.556473;0.515440;2.885887;
82.588890;0.516758;2.885290;
82.621292;0.521014;2.882648;
82.653702;0.523465;2.879634;
82.686104;0.521884;2.878927;
82.718498;0.521809;2.877048;
82.750916;0.518480;2.873580;
82.783333;0.520895;2.872779;
82.815765;0.519841;2.871837;
82.848160;0.520210;2.868000;
82.880539;0.520114;2.866071;
82.912956;0.521279;2.865761;
82.945374;0.524197;2.862523;
82.977798;0.525090;2.859765;
83.010193;0.524718;2.859390;
83.042610;0.523279;2.856579;
83.075020;0.520695;2.853445;
83.107399;0.521173;2.853152;
83.139832;0.522119;2.851136;
83.172234;0.522525;2.847574;
83.204643;0.520161;2.846446;
83.237061;0.523596;2.845158;
83.269470;0.519722;2.841666;
83.301903;0.517852;2.840091;
83.334282;0.518789;2.839748;
83.366684;0.518336;2.836354;
83.399094;0.518274;2.833997;
83.431503;0.520501;2.833470;
83.463943;0.518000;2.830535;
83.501953;0.518809;2.827571;
83.528755;0.522494;2.827281;
83.561127;0.520399;2.824875;
83.593544;0.519933;2.821575;
83.625969;0.516391;2.821087;
83.658363;0.515800;2.819273;
83.690781;0.517498;2.816245;
83.723198;0.517752;2.814886;
83.755615;0.521378;2.813868;
83.788010;0.517054;2.810426;
83.820404;0.514153;2.808623;
83.852821;0.517225;2.808387;
83.885239;0.517062;2.804977;
83.917648;0.521430;2.802439;
83.950073;0.521508;2.802230;
83.982475;0.523234;2.799535;
84.014862;0.520650;2.796262;
84.047264;0.519574;2.795783;
84.079681;0.520108;2.793965;
84.112114;0.525853;2.790622;
84.144508;0.525213;2.789743;
84.176926;0.522753;2.788394;
84.209335;0.522898;2.784599;
84.241722;0.527381;2.783057;
84.274155;0.527484;2.782635;
84.306541;0.525314;2.779160;
84.338959;0.521195;2.776808;
84.371368;0.522516;2.776431;
84.403786;0.523969;2.773413;
84.436218;0.524760;2.770669;
84.468582;0.525482;2.770165;
84.500992;0.521903;2.767449;
84.533409;0.525035;2.764096;
84.565826;0.526098;2.763995;
84.598251;0.529019;2.761232;
84.630646;0.526970;2.757830;
84.663063;0.528386;2.756938;
84.695442;0.525490;2.755343;
84.727852;0.525643;2.751560;
84.760292;0.524711;2.750357;
84.792686;0.526605;2.749800;
84.825104;0.527828;2.745721;
84.857506;0.529043;2.743378;
84.889923;0.529003;2.743377;
84.922325;0.528058;2.739917;
84.954727;0.525783;2.737233;
84.987129;0.526835;2.736666;
85.019547;0.530180;2.733981;
85.051964;0.528242;2.731017;
85.084396;0.527126;2.730512;
85.116791;0.528870;2.727964;
85.149170;0.534510;2.724694;
85.181587;0.529546;2.723691;
85.213997;0.529268;2.721979;
85.246422;0.531058;2.718716;
85.278824;0.532430;2.717584;
85.311234;0.530667;2.716052;
85.343651;0.532257;2.712578;
85.376030;0.535835;2.711224;
85.408463;0.536361;2.710049;
85.440857;0.540166;2.706733;
85.473274;0.539807;2.705014;
85.505692;0.538263;2.704008;
85.538094;0.543102;2.701153;
85.570534;0.545588;2.698827;
85.602898;0.541937;2.698308;
85.635307;0.538902;2.695610;
85.667717;0.542645;2.692636;
85.700134;0.541066;2.692035;
85.732567;0.544818;2.689869;
85.764969;0.550223;2.686364;
85.797371;0.549551;2.685532;
85.829758;0.550615;2.683642;
85.862175;0.552557;2.680243;
85.894608;0.552436;2.679172;
85.926994;0.554568;2.678192;
85.959412;0.553762;2.674714;
85.991829;0.557045;2.672749;
86.024239;0.562658;2.671704;
86.056641;0.560363;2.668569;
86.089035;0.559558;2.666145;
86.121452;0.558808;2.665538;
86.153862;0.560819;2.662791;
86.186272;0.564432;2.660061;
86.218704;0.567194;2.659609;
86.251099;0.567677;2.656878;
86.283485;0.572357;2.653843;
86.315895;0.574682;2.653122;
86.348312;0.581778;2.650896;
86.380745;0.582511;2.647299;
86.413139;0.583840;2.646674;
86.445557;0.585120;2.644750;
86.477959;0.587442;2.641283;
86.510345;0.595650;2.639877;
86.542786;0.597495;2.638296;
86.575172;0.597683;2.635000;
86.607582;0.602144;2.632947;
86.639999;0.609453;2.632155;
86.672417;0.614651;2.628435;
86.704842;0.619135;2.626342;
86.737206;0.627032;2.625386;
86.769623;0.635077;2.622324;
86.802040;0.642454;2.619742;
86.834457;0.646602;2.618963;
86.866882;0.653649;2.616217;
86.899277;0.664738;2.613466;
86.931694;0.669245;2.612684;
86.964066;0.678669;2.610030;
86.996490;0.691426;2.607084;
87.028915;0.694599;2.605695;
87.061317;0.704937;2.603671;
87.093727;0.718830;2.600518;
87.126137;0.734670;2.599445;
87.158554;0.741936;2.597795;
87.190956;0.752310;2.594172;
87.223343;0.763212;2.592585;
87.255760;0.776837;2.591354;
87.288177;0.791172;2.588053;
87.320587;0.803114;2.586001;
87.353012;0.816590;2.585262;
87.385414;0.833127;2.581799;
87.417801;0.847688;2.579507;
87.450211;0.864937;2.578504;
87.482628;0.880010;2.575486;
87.515053;0.891199;2.572809;
87.547447;0.904306;2.572242;
87.579865;0.920815;2.569631;
87.612282;0.934816;2.566509;
87.644669;0.952166;2.565529;
87.677094;0.969280;2.563222;
87.709488;0.978821;2.560250;
87.741905;0.993890;2.559232;
87.774307;1.009984;2.557040;
87.806732;1.024418;2.553577;
87.839142;1.041720;2.552267;
87.871529;1.057279;2.550850;
87.903931;1.068416;2.547429;
87.936348;1.079423;2.545965;
87.968765;1.089441;2.544517;
88.001190;1.102218;2.541024;
88.033592;1.112534;2.539370;
88.066002;1.126989;2.537963;
88.098389;1.139149;2.534902;
88.130821;1.151073;2.532530;
88.163231;1.159746;2.531321;
88.195625;1.169248;2.528581;
88.228043;1.177713;2.526027;
88.260452;1.182503;2.524889;
88.292877;1.186740;2.522154;
88.325264;1.192545;2.519444;
88.357666;1.197080;2.518299;
88.390076;1.197632;2.515866;
88.422493;1.197734;2.513111;
88.454910;1.197645;2.511738;
88.487312;1.207306;2.509729;
88.519730;1.208048;2.506691;
88.552109;1.206325;2.505371;
88.584526;1.206603;2.503119;
88.616936;1.202184;2.500010;
88.649361;1.200411;2.498782;
88.681770;1.197119;2.496711;
88.714172;1.193074;2.493034;
88.746590;1.185820;2.491646;
88.778999;1.177977;2.490017;
88.811401;1.171890;2.486420;
88.843796;1.166133;2.484857;
88.876213;1.152031;2.483541;
88.908630;1.143473;2.480268;
88.941055;1.135428;2.477926;
88.973457;1.129515;2.476880;
89.005836;1.121957;2.473806;
89.038254;1.111099;2.471083;
89.070671;1.105728;2.470013;
89.103081;1.097960;2.467278;
89.135490;1.086166;2.464275;
89.167908;1.073667;2.462951;
89.200317;1.064319;2.460648;
89.232697;1.053729;2.457488;
89.265129;1.040770;2.456212;
89.297539;1.032089;2.453833;
89.329941;1.022186;2.450961;
89.362358;1.015947;2.449383;
89.394768;1.004131;2.446989;
89.427200;0.997050;2.443642;
89.459579;0.991168;2.442255;
89.491974;0.983569;2.440317;
89.524391;0.978062;2.436643;
89.556801;0.971937;2.435272;
89.589226;0.968411;2.433575;
89.621635;0.962504;2.430003;
89.654037;0.960468;2.428081;
89.686424;0.958528;2.426628;
89.718842;0.956937;2.423212;
89.751266;0.965034;2.421139;
89.783661;0.969071;2.419472;
89.816078;0.972006;2.416276;
89.848495;0.973874;2.413971;
89.880913;0.977957;2.412413;
89.913307;0.986818;2.409220;
89.945709;0.998431;2.406438;
89.978119;1.013573;2.404764;
90.010536;1.029898;2.401907;
90.042938;1.048364;2.399096;
90.075371;1.069671;2.397798;
90.107773;1.099904;2.394676;
90.140144;1.130083;2.391778;
90.172562;1.168370;2.390299;
90.204979;1.210955;2.387187;
90.237404;1.256740;2.384293;
90.269806;1.309820;2.382237;
90.302216;1.364291;2.379143;
90.334633;1.431112;2.375731;
90.367020;1.511476;2.373688;
90.399452;1.600858;2.370879;
90.431839;1.700621;2.367287;
90.464256;1.811212;2.364798;
90.496674;1.933542;2.362064;
90.529083;2.070891;2.358513;
90.561523;2.229056;2.355725;
90.593887;2.403680;2.352621;
90.626297;2.598978;2.349010;
90.658707;2.813594;2.345789;
90.691116;3.054660;2.342752;
90.723549;3.318543;2.338964;
90.755943;3.611845;2.335348;
90.788361;3.931781;2.332249;
90.820740;4.103875;2.327825;
90.853157;4.103875;2.324025;
90.885590;4.103875;2.321103;
90.917984;4.103875;2.316384;
90.950401;4.103875;2.312111;
90.982803;4.103875;2.308968;
91.015221;4.103875;2.303885;
91.047630;4.103875;2.299048;
91.080017;4.103875;2.295481;
91.112427;4.103875;2.290785;
91.144844;4.103875;2.285271;
91.177261;4.103875;2.281158;
91.209694;4.103875;2.276685;
91.242081;4.103875;2.270797;
91.274467;4.103875;2.266133;
91.306885;4.103875;2.260988;
91.339302;4.103875;2.255354;
91.371727;4.103875;2.250643;
91.404121;4.103875;2.246058;
91.436539;4.103875;2.239139;
91.468948;4.103875;2.234591;
91.501328;4.103875;2.229368;
91.533760;4.103875;2.222989;
91.566162;4.103875;2.217913;
91.598572;4.103875;2.212975;
91.630981;4.103875;2.206192;
91.663399;4.103875;2.201081;
91.695831;4.103875;2.196016;
91.728195;4.103875;2.189418;
91.760605;4.103875;2.183851;
91.793022;4.103875;2.179094;
91.825432;4.103875;2.172051;
91.857872;4.103875;2.166597;
91.890266;4.103875;2.162260;
91.922668;4.103875;2.155576;
91.955055;4.103875;2.149874;
91.987473;4.103875;2.145162;
92.019897;4.103875;2.138889;
92.052292;4.103875;2.133507;
92.084709;4.103875;2.128989;
92.117126;4.103875;2.122784;
92.149544;4.103875;2.117746;
92.181938;4.103875;2.113312;
92.214333;4.103875;2.107473;
92.246750;4.103875;2.102025;
92.279167;4.103875;2.098185;
92.311569;4.103875;2.092640;
92.344002;4.103875;2.087474;
92.376404;4.103875;2.083236;
92.408775;4.103875;2.079073;
92.441193;4.103875;2.074085;
92.473610;4.103875;2.070631;
92.506042;4.103875;2.066372;
92.538437;4.103875;2.061944;
92.570847;4.103875;2.058580;
92.603264;4.103875;2.054570;
92.635651;4.103875;2.050403;
92.668076;4.103875;2.047292;
92.700470;4.103875;2.044155;
92.732887;4.103875;2.040379;
92.765297;4.103875;2.037342;
92.797714;4.103875;2.034354;
92.830139;4.103875;2.031148;
92.862511;4.103875;2.028544;
92.894920;4.103875;2.026040;
92.927338;4.103875;2.022724;
92.959747;4.103875;2.021155;
92.992180;4.103875;2.019832;
93.024574;4.103875;2.017083;
93.056992;4.103875;2.015243;
93.089371;4.103875;2.014129;
93.121796;4.103875;2.011928;
93.154221;4.103875;2.010628;
93.186615;4.103875;2.010258;
93.219017;4.103875;2.008769;
93.251434;4.103875;2.007551;
93.283852;4.103875;2.008106;
93.316254;4.103875;2.007066;
93.348640;4.103875;2.006401;
93.381058;4.103875;2.006712;
93.413475;4.103875;2.006186;
93.445892;4.103875;2.006045;
93.478317;4.103875;2.006963;
93.510712;4.103875;2.007157;
93.543098;4.103875;2.007174;
93.575516;4.103875;2.008495;
93.607918;4.103875;2.008572;
93.640350;4.103875;2.008966;
93.672752;4.103875;2.010344;
93.705162;4.103875;2.010917;
93.737579;4.103875;2.011347;
93.769966;4.103875;2.013128;
93.802391;4.103875;2.014320;
93.834785;4.103875;2.014505;
93.867203;4.103875;2.016260;
93.899612;4.103875;2.017325;
93.932022;4.103875;2.017739;
93.964447;4.103875;2.019061;
93.996819;4.103875;2.020552;
94.029236;4.103875;2.021094;
94.061646;4.103875;2.022322;
94.094063;4.103875;2.023413;
94.126488;4.103875;2.024016;
94.158882;4.103875;2.025447;
94.191299;4.103875;2.026311;
94.223686;4.103875;2.026163;
94.256111;4.103875;2.027020;
94.288528;4.103875;2.027958;
94.320923;4.103875;2.027524;
94.353340;4.103875;2.027790;
94.385757;4.103875;2.028474;
94.418182;4.103875;2.027911;
94.450569;4.103875;2.027986;
94.482964;4.103875;2.028356;
94.515381;4.103875;2.027023;
94.547783;4.103875;2.026784;
94.580200;4.103875;2.026540;
94.612625;4.103875;2.025470;
94.645027;4.103875;2.024432;
94.677406;4.103875;2.023960;
94.709824;4.103875;2.022415;
94.742241;4.103875;2.021149;
94.774666;4.103875;2.020371;
94.807068;4.103875;2.018618;
94.839478;4.103875;2.017228;
94.871887;4.103875;2.016685;
94.904297;4.103875;2.014764;
94.936699;4.103875;2.012714;
94.969101;4.103875;2.011640;
95.001511;4.103875;2.009269;
95.033928;4.103875;2.006803;
95.066353;4.103875;2.005696;
95.098747;4.103875;2.003365;
95.131134;4.103875;2.000672;
95.163551;4.103875;1.999299;
95.195969;4.103875;1.997071;
95.228371;4.103875;1.994086;
95.260796;4.103875;1.992149;
95.293205;4.103875;1.989737;
95.325623;4.103875;1.986883;
95.357994;4.103875;1.984661;
95.390434;4.103875;1.981833;
95.422836;4.103875;1.979183;
95.455246;4.103875;1.976908;
95.487648;4.103875;1.973876;
95.520065;4.103875;1.970744;
95.552498;4.103875;1.968504;
95.584877;4.103875;1.965924;
95.617271;4.103875;1.962644;
95.649689;4.103875;1.960299;
95.682106;4.103875;1.957610;
95.714531;4.103875;1.954242;
95.746925;4.103875;1.951382;
95.779343;4.103875;1.949260;
95.811729;4.103875;1.946069;
95.844139;4.103875;1.942480;
95.876549;4.103875;1.940406;
95.908974;4.103875;1.937137;
95.941376;4.103875;1.933922;
95.973793;4.103875;1.931711;
96.006210;4.103875;1.928361;
96.038605;4.103875;1.925100;
96.071014;4.103875;1.922412;
96.103416;4.103875;1.919281;
96.135826;4.103875;1.916147;
96.168236;4.103875;1.913736;
96.200676;4.103875;1.910251;
96.233070;4.103875;1.907017;
96.265450;4.103875;1.905060;
96.297859;4.103875;1.901401;
96.330276;4.103875;1.898005;
96.362701;4.103875;1.895425;
96.395111;4.103875;1.892527;
96.427513;4.103875;1.888717;
96.459930;4.103875;1.886811;
96.492317;4.103875;1.883497;
96.524742;4.103875;1.880139;
96.557137;4.103875;1.877441;
96.589554;4.103875;1.874484;
96.621971;4.103875;1.870823;
96.654381;4.103875;1.868303;
96.686806;4.103875;1.865423;
96.719185;4.103875;1.861496;
96.751595;4.103875;1.859058;
96.784004;4.103875;1.856130;
96.816414;4.103875;1.852710;
96.848846;4.103875;1.850140;
96.881241;4.103875;1.847400;
96.913658;4.103875;1.843492;
96.946037;4.103875;1.841117;
96.978455;4.103875;1.838621;
97.010880;4.103875;1.834598;
97.043282;4.103875;1.831917;
97.075691;4.103875;1.829100;
97.108101;4.103875;1.825257;
97.140518;4.103875;1.822346;
97.172928;4.103875;1.819840;
97.205315;4.103875;1.816151;
97.237724;4.103875;1.813283;
97.270142;4.103875;1.810695;
97.302559;4.103875;1.807031;
97.334991;4.103875;1.803674;
97.367378;4.103875;1.800887;
97.399765;4.103875;1.797527;
97.432182;4.103875;1.794463;
97.464584;4.103875;1.791831;
97.497025;4.103875;1.787850;
97.529419;4.103875;1.784756;
97.561836;4.033018;1.782202;
97.594246;3.814447;1.778444;
97.626625;3.588588;1.774939;
97.659058;3.368390;1.772236;
97.691460;3.160146;1.768685;
97.723869;2.957431;1.764894;
97.756279;2.764472;1.762127;
97.788696;2.587626;1.758959;
97.821129;2.420445;1.755323;
97.853485;2.265630;1.752083;
97.885902;2.124704;1.749170;
97.918320;1.992578;1.745255;
97.950729;1.870577;1.742239;
97.983170;1.758170;1.739489;
98.015556;1.653493;1.735806;
98.047966;1.563522;1.732280;
98.080353;1.479791;1.729112;
98.112770;1.401631;1.725837;
98.145195;1.331957;1.722686;
98.177589;1.266617;1.719344;
98.210007;1.203814;1.715947;
98.242424;1.143420;1.712345;
98.274841;1.094128;1.709413;
98.307236;1.046133;1.705847;
98.339630;1.000719;1.702017;
98.372047;0.962122;1.698859;
98.404449;0.933264;1.695695;
98.436867;0.896547;1.691799;
98.469299;0.859910;1.688956;
98.501701;0.831286;1.685205;
98.534073;0.806852;1.681115;
98.566490;0.779678;1.678847;
98.598907;0.758868;1.675214;
98.631340;0.744547;1.671222;
98.663727;0.725502;1.667963;
98.696144;0.708944;1.665027;
98.728561;0.693843;1.660903;
98.760948;0.677997;1.657586;
98.793373;0.664104;1.654290;
98.825768;0.651093;1.650158;
98.858185;0.637336;1.646843;
98.890594;0.626661;1.643534;
98.923012;0.623038;1.639527;
98.955437;0.623601;1.636195;
98.987808;0.627745;1.633193;
99.020218;0.626761;1.628588;
99.052628;0.627115;1.624884;
99.085045;0.633918;1.621837;
99.117477;0.637353;1.617367;
99.149872;0.646949;1.613552;
99.182289;0.660184;1.610567;
99.214668;0.678654;1.606703;
99.247078;0.698844;1.602373;
99.279518;0.762261;1.208282;
99.311913;3.160820;1.186193;
99.344315;4.103875;1.188631;
99.376732;4.103875;1.188444;
99.409149;4.103875;1.186834;
99.441544;4.103875;1.183565;
99.473938;4.103875;1.180678;
99.506355;4.103875;1.177700;
99.538773;4.103875;1.174607;
99.571190;4.103875;1.170765;
99.603615;4.103875;1.167310;
99.636009;4.103875;1.164105;
99.668396;4.103875;1.160261;
99.700813;4.103875;1.155613;
99.733215;4.103875;1.152258;
99.765648;4.103875;1.148826;
99.798050;4.103875;1.144670;
99.830460;4.103875;1.141557;
99.862877;4.103875;1.138056;
99.895256;4.103875;1.134210;
99.927689;4.103875;1.130751;
99.960083;4.103875;1.127288;
99.992493;4.103875;1.123741;
