"Piezo Voltage (V)";"Fine In 1 (V)";"Fine In 2 (V)";
67.032494;0.093685;0.011302;
67.064926;0.090626;0.011340;
67.097282;0.088554;0.011394;
67.129700;0.086295;0.011371;
67.162117;0.082808;0.011291;
67.194534;0.078617;0.011411;
67.226959;0.074056;0.011387;
67.259354;0.070641;0.011323;
67.291771;0.067934;0.011274;
67.324142;0.066746;0.011506;
67.356560;0.070428;0.011372;
67.388992;0.069762;0.011292;
67.421394;0.072905;0.011322;
67.453804;0.064305;0.011431;
67.486214;0.067087;0.011393;
67.518631;0.068122;0.011210;
67.551033;0.062238;0.011368;
67.583427;0.061616;0.011408;
67.615837;0.061218;0.011295;
67.648254;0.061716;0.011215;
67.680664;0.061100;0.011379;
67.713104;0.057336;0.011322;
67.745499;0.059495;0.011269;
67.777878;0.056958;0.011345;
67.810287;0.059165;0.011468;
67.842705;0.061690;0.011362;
67.875130;0.062891;0.011306;
67.907524;0.062315;0.011350;
67.939941;0.066680;0.011282;
67.972359;0.063006;0.011268;
68.004738;0.061021;0.011325;
68.037170;0.059798;0.011409;
68.069565;0.060814;0.011324;
68.101982;0.060910;0.011167;
68.134399;0.063530;0.011339;
68.166801;0.063021;0.011416;
68.199234;0.063264;0.011288;
68.231606;0.067594;0.011263;
68.264008;0.065605;0.011360;
68.296425;0.064244;0.011356;
68.328842;0.063602;0.011287;
68.361275;0.069732;0.011372;
68.393669;0.071957;0.011411;
68.426079;0.075281;0.011295;
68.458466;0.077381;0.011090;
68.490891;0.077431;0.011363;
68.523315;0.081244;0.011252;
68.555702;0.083998;0.011222;
68.588120;0.082387;0.011243;
68.620529;0.088372;0.011427;
68.652946;0.094105;0.011263;
68.685341;0.098873;0.011109;
68.717743;0.101576;0.011250;
68.750153;0.106904;0.011347;
68.782570;0.109425;0.011191;
68.814980;0.117161;0.011107;
68.847412;0.125385;0.011275;
68.879807;0.130594;0.011163;
68.912193;0.144118;0.011124;
68.944603;0.152204;0.011070;
68.977013;0.164188;0.011222;
69.009453;0.176139;0.011211;
69.041847;0.184963;0.011030;
69.074265;0.197263;0.010992;
69.106667;0.215778;0.011145;
69.139061;0.234366;0.010879;
69.171486;0.249185;0.010920;
69.203873;0.263328;0.011010;
69.236290;0.281461;0.010918;
69.268707;0.305314;0.010846;
69.301125;0.332222;0.010827;
69.333549;0.357155;0.010880;
69.365913;0.386065;0.010714;
69.398331;0.415381;0.010631;
69.430748;0.443757;0.010726;
69.463158;0.476083;0.010691;
69.495583;0.510559;0.010510;
69.527985;0.547961;0.010597;
69.560394;0.583099;0.010552;
69.592773;0.620980;0.010500;
69.625198;0.664535;0.010294;
69.657623;0.707254;0.010483;
69.690018;0.752514;0.010368;
69.722435;0.801617;0.010249;
69.754845;0.855539;0.010176;
69.787270;0.910175;0.010267;
69.819664;0.963438;0.010202;
69.852058;1.019823;0.009986;
69.884468;1.075803;0.009976;
69.916878;1.134161;0.010066;
69.949295;1.192623;0.009849;
69.981720;1.253576;0.009686;
70.014114;1.315209;0.009851;
70.046501;1.374715;0.009697;
70.078918;1.439837;0.009662;
70.111336;1.506477;0.009600;
70.143761;1.566939;0.009729;
70.176155;1.625579;0.009575;
70.208572;1.689895;0.009430;
70.240990;1.751770;0.009465;
70.273376;1.811498;0.009551;
70.305801;1.870253;0.009433;
70.338196;1.927631;0.009347;
70.370613;1.980862;0.009395;
70.403015;2.036509;0.009356;
70.435440;2.085873;0.009247;
70.467850;2.131796;0.009255;
70.500237;2.174079;0.009298;
70.532639;2.216009;0.009130;
70.565056;2.256045;0.009084;
70.597473;2.290826;0.009244;
70.629890;2.324274;0.009206;
70.662300;2.353896;0.009094;
70.694710;2.378132;0.009125;
70.727097;2.396142;0.009139;
70.759514;2.414903;0.009190;
70.791939;2.431550;0.009099;
70.824333;2.443884;0.009199;
70.856750;2.452760;0.009233;
70.889160;2.458526;0.009071;
70.921585;2.465721;0.009070;
70.953972;2.463846;0.009226;
70.986374;2.455759;0.009115;
71.018784;2.455500;0.009039;
71.051201;2.447340;0.009061;
71.083618;2.433391;0.009135;
71.116020;2.419294;0.009115;
71.148438;2.404941;0.009035;
71.180817;2.389003;0.009208;
71.213234;2.365524;0.009148;
71.245659;2.340771;0.009051;
71.278061;2.322955;0.009039;
71.310478;2.300963;0.009148;
71.342880;2.273429;0.009111;
71.375298;2.241791;0.008949;
71.407707;2.213270;0.009114;
71.440109;2.183934;0.009244;
71.472504;2.155353;0.009046;
71.504921;2.123679;0.009020;
71.537338;2.091441;0.009177;
71.569771;2.064090;0.009190;
71.602165;2.032890;0.008970;
71.634544;1.998895;0.009125;
71.666962;1.967521;0.009117;
71.699379;1.937463;0.009091;
71.731789;1.905949;0.009076;
71.764198;1.870926;0.009054;
71.796616;1.840220;0.009270;
71.829025;1.807866;0.009067;
71.861404;1.769692;0.009073;
71.893829;1.740487;0.009172;
71.926239;1.714943;0.009140;
71.958649;1.683560;0.009035;
71.991066;1.651510;0.009121;
72.023476;1.620148;0.009192;
72.055908;1.591175;0.009087;
72.088287;1.566916;0.008975;
72.120682;1.541738;0.009244;
72.153099;1.511077;0.009162;
72.185509;1.486764;0.009009;
72.217949;1.467785;0.009046;
72.250343;1.441812;0.009277;
72.282745;1.416705;0.009082;
72.315132;1.397562;0.009030;
72.347549;1.372874;0.009099;
72.379974;1.350692;0.009141;
72.412369;1.332207;0.009008;
72.444786;1.318020;0.009034;
72.477203;1.303279;0.009240;
72.509621;1.283269;0.009056;
72.542015;1.264249;0.009073;
72.574409;1.247025;0.009067;
72.606827;1.231624;0.009127;
72.639244;1.219339;0.009026;
72.671646;1.205116;0.009026;
72.704079;1.194952;0.009115;
72.736481;1.182316;0.009176;
72.768867;1.171737;0.008953;
72.801270;1.160452;0.009077;
72.833687;1.148433;0.009067;
72.866119;1.140118;0.009113;
72.898514;1.130999;0.009066;
72.930923;1.124479;0.009138;
72.963341;1.119977;0.009197;
72.995728;1.112933;0.009076;
73.028152;1.108021;0.009002;
73.060547;1.105947;0.009140;
73.092964;1.103575;0.009216;
73.125374;1.101560;0.008990;
73.157791;1.094226;0.009140;
73.190224;1.095857;0.009118;
73.222588;1.097208;0.009082;
73.254997;1.093194;0.009003;
73.287415;1.090617;0.009189;
73.319824;1.089894;0.009195;
73.352257;1.092002;0.009021;
73.384651;1.092691;0.009071;
73.417068;1.094931;0.009322;
73.449448;1.094778;0.009146;
73.481857;1.097074;0.009101;
73.514297;1.098128;0.009232;
73.546692;1.099389;0.009203;
73.579109;1.101588;0.009250;
73.611511;1.099284;0.009198;
73.643929;1.098184;0.009291;
73.676331;1.099484;0.009299;
73.708717;1.100948;0.009191;
73.741135;1.101030;0.009290;
73.773552;1.102839;0.009415;
73.805969;1.100364;0.009425;
73.838402;1.104631;0.009298;
73.870789;1.100919;0.009424;
73.903175;1.096137;0.009469;
73.935593;1.090449;0.009332;
73.968002;1.080476;0.009513;
74.000427;1.073821;0.009524;
74.032829;1.068140;0.009590;
74.065239;1.058732;0.009576;
74.097656;1.044333;0.009731;
74.130035;1.034478;0.009686;
74.162468;1.021845;0.009667;
74.194862;1.012437;0.009675;
74.227280;0.997808;0.009929;
74.259689;0.982434;0.009950;
74.292099;0.962858;0.009849;
74.324539;0.943736;0.009926;
74.356903;0.928564;0.010127;
74.389313;0.907305;0.010037;
74.421722;0.885736;0.010009;
74.454140;0.863932;0.010209;
74.486572;0.841205;0.010287;
74.518974;0.817341;0.010280;
74.551376;0.793324;0.010295;
74.583763;0.769374;0.010472;
74.616180;0.741336;0.010430;
74.648605;0.718356;0.010428;
74.681000;0.691115;0.010416;
74.713417;0.665281;0.010599;
74.745834;0.645036;0.010534;
74.778244;0.623442;0.010550;
74.810646;0.602109;0.010738;
74.843040;0.573719;0.010683;
74.875458;0.555362;0.010587;
74.907867;0.529971;0.010691;
74.940277;0.506742;0.010765;
74.972710;0.483739;0.010706;
75.005104;0.460952;0.010737;
75.037483;0.442200;0.010908;
75.069901;0.424137;0.010904;
75.102318;0.405175;0.010800;
75.134750;0.383551;0.010860;
75.167145;0.356834;0.010866;
75.199554;0.338576;0.010955;
75.231964;0.327096;0.010749;
75.264351;0.305183;0.010869;
75.296791;0.289719;0.010951;
75.329178;0.273251;0.010901;
75.361588;0.261463;0.010868;
75.394005;0.249699;0.011021;
75.426422;0.238645;0.011009;
75.458847;0.225554;0.010910;
75.491211;0.215964;0.010999;
75.523628;0.204705;0.011063;
75.556046;0.194402;0.011052;
75.588448;0.183762;0.010874;
75.620888;0.176364;0.011007;
75.653282;0.168518;0.011134;
75.685699;0.156530;0.011022;
75.718071;0.150107;0.010966;
75.750488;0.139643;0.011157;
75.782921;0.130786;0.011072;
75.815323;0.126764;0.011022;
75.847725;0.124534;0.011051;
75.880142;0.120487;0.011131;
75.912560;0.113647;0.010954;
75.944962;0.108786;0.010982;
75.977348;0.103379;0.010970;
76.009766;0.098708;0.011054;
76.042183;0.093351;0.010998;
76.074593;0.092818;0.010927;
76.107018;0.088474;0.011182;
76.139420;0.088706;0.011044;
76.171806;0.088166;0.010989;
76.204216;0.083040;0.010997;
76.236626;0.080132;0.011106;
76.269058;0.076508;0.011085;
76.301453;0.075506;0.010986;
76.333870;0.079093;0.011095;
76.366287;0.081899;0.011076;
76.398674;0.082567;0.010990;
76.431099;0.077155;0.010982;
76.463493;0.073603;0.011120;
76.495911;0.072104;0.011049;
76.528313;0.067465;0.010886;
76.560738;0.068268;0.011063;
76.593147;0.069130;0.011090;
76.625526;0.067898;0.011038;
76.657936;0.065985;0.010931;
76.690353;0.064341;0.011066;
76.722771;0.063423;0.011132;
76.755196;0.066863;0.010877;
76.787590;0.063778;0.011040;
76.820007;0.062980;0.011104;
76.852394;0.067250;0.011058;
76.884811;0.065939;0.010911;
76.917236;0.064166;0.011164;
76.949631;0.060018;0.011052;
76.982048;0.059152;0.011025;
77.014458;0.060233;0.011096;
77.046883;0.057294;0.011035;
77.079269;0.058050;0.011134;
77.111671;0.065132;0.010982;
77.144081;0.068826;0.011052;
77.176491;0.065711;0.011129;
77.208916;0.063727;0.010942;
77.241318;0.060965;0.010991;
77.273735;0.062230;0.010987;
77.306114;0.062859;0.011013;
77.338531;0.060611;0.010947;
77.370941;0.061180;0.010955;
77.403366;0.060679;0.011114;
77.435776;0.062872;0.010989;
77.468178;0.063688;0.010894;
77.500595;0.063574;0.011051;
77.533005;0.063335;0.011150;
77.565407;0.066206;0.010928;
77.597801;0.067636;0.010981;
77.630219;0.068352;0.011024;
77.662636;0.068046;0.011114;
77.695061;0.062531;0.010868;
77.727455;0.060424;0.010963;
77.759842;0.060408;0.011089;
77.792259;0.060130;0.010951;
77.824677;0.057869;0.010976;
77.857086;0.060397;0.011045;
77.889496;0.061469;0.011044;
77.921913;0.061565;0.010957;
77.954323;0.059998;0.010962;
77.986702;0.059298;0.011090;
78.019119;0.061451;0.011070;
78.051544;0.063598;0.010907;
78.083946;0.063512;0.011079;
78.116356;0.060143;0.011044;
78.148773;0.056400;0.010998;
78.181206;0.057452;0.010911;
78.213585;0.053394;0.011097;
78.245979;0.055044;0.010960;
78.278397;0.056586;0.010938;
78.310806;0.055542;0.010978;
78.343231;0.056752;0.011012;
78.375641;0.059683;0.011029;
78.408043;0.058820;0.010769;
78.440430;0.055031;0.011009;
78.472847;0.057348;0.011079;
78.505264;0.056225;0.010946;
78.537666;0.060823;0.010893;
78.570084;0.059659;0.011148;
78.602501;0.059543;0.011042;
78.634918;0.057622;0.010877;
78.667313;0.056118;0.010972;
78.699715;0.055827;0.011143;
78.732124;0.054836;0.010972;
78.764526;0.055827;0.010903;
78.796944;0.052753;0.011025;
78.829376;0.050555;0.010988;
78.861778;0.050856;0.010932;
78.894150;0.052487;0.010935;
78.926567;0.054298;0.011026;
78.958984;0.053936;0.010911;
78.991409;0.050580;0.010797;
79.023811;0.052718;0.010936;
79.056221;0.051314;0.011041;
79.088638;0.051662;0.010928;
79.121025;0.052701;0.010912;
79.153435;0.050863;0.010990;
79.185844;0.052019;0.011018;
79.218262;0.051025;0.010834;
79.250671;0.049754;0.010989;
79.283089;0.049673;0.011055;
79.315514;0.049244;0.011024;
79.347893;0.052245;0.010840;
79.380295;0.049672;0.011078;
79.412712;0.052379;0.011008;
79.445122;0.052723;0.010955;
79.477554;0.049113;0.010898;
79.509949;0.041895;0.010995;
79.542366;0.042352;0.010915;
79.574745;0.040459;0.010929;
79.607155;0.039987;0.010800;
79.639580;0.044194;0.011075;
79.671989;0.045539;0.010892;
79.704391;0.044760;0.010846;
79.736809;0.043057;0.010929;
79.769226;0.043584;0.010992;
79.801628;0.041641;0.010886;
79.834015;0.044146;0.010837;
79.866432;0.045653;0.011039;
79.898849;0.043162;0.010904;
79.931267;0.037909;0.010834;
79.963699;0.041578;0.010905;
79.996086;0.043616;0.011096;
80.028473;0.044858;0.010803;
80.060890;0.043368;0.010851;
80.093292;0.040397;0.010947;
80.125725;0.039698;0.010940;
80.158127;0.037859;0.010724;
80.190536;0.036298;0.010906;
80.222954;0.036955;0.010960;
80.255333;0.037831;0.010861;
80.287766;0.036818;0.010821;
80.320160;0.040567;0.010983;
80.352577;0.042140;0.010941;
80.384987;0.043700;0.010822;
80.417397;0.041922;0.010901;
80.449837;0.043725;0.010956;
80.482193;0.044627;0.010911;
80.514610;0.043110;0.010798;
80.547020;0.039680;0.010957;
80.579437;0.037014;0.010961;
80.611870;0.035017;0.010900;
80.644257;0.033022;0.010792;
80.676643;0.039139;0.010967;
80.709061;0.039061;0.010969;
80.741478;0.039342;0.010867;
80.773903;0.041021;0.010862;
80.806297;0.038471;0.011075;
80.838715;0.036662;0.010863;
80.871132;0.036405;0.010826;
80.903503;0.039190;0.010850;
80.935944;0.035947;0.010942;
80.968338;0.038096;0.010789;
81.000755;0.039734;0.010785;
81.033157;0.037838;0.010931;
81.065575;0.040890;0.010964;
81.098007;0.042942;0.010742;
81.130379;0.041852;0.010857;
81.162781;0.038058;0.011005;
81.195198;0.038877;0.010748;
81.227615;0.040571;0.010934;
81.260048;0.040035;0.010849;
81.292442;0.035823;0.010993;
81.324852;0.032834;0.010718;
81.357239;0.033188;0.010879;
81.389648;0.036750;0.010908;
81.422073;0.035798;0.010867;
81.454475;0.036432;0.010741;
81.486885;0.038075;0.010899;
81.519302;0.035538;0.011057;
81.551720;0.037238;0.010748;
81.584114;0.041604;0.010826;
81.616508;0.040302;0.010951;
81.648926;0.038353;0.010900;
81.681335;0.039193;0.010727;
81.713745;0.037164;0.010888;
81.746185;0.036041;0.010930;
81.778580;0.037116;0.010811;
81.810959;0.034840;0.010691;
81.843369;0.037360;0.010990;
81.875786;0.038369;0.010818;
81.908218;0.038970;0.010863;
81.940620;0.039030;0.010778;
81.973022;0.040987;0.010945;
82.005440;0.039393;0.010809;
82.037827;0.036997;0.010777;
82.070251;0.037562;0.010936;
82.102646;0.038829;0.010923;
82.135063;0.032758;0.010807;
82.167480;0.033748;0.010806;
82.199890;0.038019;0.010946;
82.232315;0.037373;0.010923;
82.264687;0.037219;0.010783;
82.297104;0.039209;0.010805;
82.329514;0.037847;0.010979;
82.361923;0.038344;0.010877;
82.394356;0.037826;0.010765;
82.426750;0.035030;0.010880;
82.459167;0.034880;0.010839;
82.491547;0.032000;0.010746;
82.523972;0.033499;0.010748;
82.556396;0.031508;0.010854;
82.588791;0.036826;0.010876;
82.621201;0.033717;0.010691;
82.653610;0.036552;0.010851;
82.686028;0.038690;0.010927;
82.718437;0.038144;0.010886;
82.750824;0.040825;0.010740;
82.783234;0.039747;0.010876;
82.815651;0.040224;0.010939;
82.848068;0.039051;0.010782;
82.880493;0.036924;0.010850;
82.912888;0.040398;0.010846;
82.945274;0.037914;0.010900;
82.977692;0.038132;0.010758;
83.010094;0.042565;0.010816;
83.042534;0.041814;0.010880;
83.074928;0.040753;0.010767;
83.107346;0.039229;0.010714;
83.139755;0.038449;0.010882;
83.172142;0.039451;0.010861;
83.204567;0.035573;0.010737;
83.236969;0.037813;0.010838;
83.269379;0.037012;0.010887;
83.301788;0.033952;0.010739;
83.334206;0.038176;0.010733;
83.366631;0.038912;0.010915;
83.398994;0.042237;0.010844;
83.431412;0.043124;0.010762;
83.463829;0.044381;0.010759;
83.501953;0.044627;0.010810;
83.528664;0.043016;0.010759;
83.561066;0.038436;0.010679;
83.593475;0.040271;0.010844;
83.625862;0.036151;0.010831;
83.658287;0.039304;0.010794;
83.690704;0.039211;0.010709;
83.723099;0.038905;0.010788;
83.755516;0.037381;0.010848;
83.787933;0.039137;0.010737;
83.820358;0.039293;0.010807;
83.852745;0.039561;0.010826;
83.885139;0.038238;0.010822;
83.917557;0.039239;0.010778;
83.949959;0.037034;0.010773;
83.982376;0.036006;0.010859;
84.014801;0.038035;0.010637;
84.047211;0.037366;0.010640;
84.079582;0.038310;0.010799;
84.112000;0.037765;0.010778;
84.144417;0.038277;0.010709;
84.176842;0.037780;0.010864;
84.209236;0.037340;0.010847;
84.241653;0.036586;0.010797;
84.274071;0.037799;0.010630;
84.306465;0.037907;0.010842;
84.338882;0.041979;0.010836;
84.371277;0.040965;0.010704;
84.403694;0.040792;0.010751;
84.436104;0.041801;0.010812;
84.468529;0.037839;0.010699;
84.500931;0.037418;0.010624;
84.533318;0.036993;0.010734;
84.565727;0.038720;0.010842;
84.598137;0.037516;0.010710;
84.630554;0.039733;0.010702;
84.662979;0.038336;0.010818;
84.695381;0.039829;0.010770;
84.727798;0.041904;0.010661;
84.760178;0.042707;0.010698;
84.792610;0.040085;0.010753;
84.825012;0.041517;0.010731;
84.857422;0.042741;0.010696;
84.889824;0.039700;0.010713;
84.922241;0.039528;0.010753;
84.954674;0.037328;0.010557;
84.987053;0.034068;0.010757;
85.019447;0.033063;0.010848;
85.051865;0.033028;0.010702;
85.084282;0.033924;0.010702;
85.116707;0.041702;0.010725;
85.149101;0.042969;0.010813;
85.181519;0.041040;0.010698;
85.213905;0.038503;0.010675;
85.246323;0.039622;0.010724;
85.278725;0.038740;0.010772;
85.311142;0.036670;0.010592;
85.343559;0.035366;0.010689;
85.375969;0.033067;0.010781;
85.408386;0.033279;0.010660;
85.440781;0.031684;0.010527;
85.473190;0.032164;0.010816;
85.505592;0.035737;0.010736;
85.538002;0.032252;0.010672;
85.570419;0.029575;0.010699;
85.602852;0.034061;0.010773;
85.635246;0.033736;0.010721;
85.667625;0.036348;0.010569;
85.700043;0.035200;0.010674;
85.732452;0.035416;0.010900;
85.764877;0.039066;0.010719;
85.797287;0.040017;0.010612;
85.829689;0.042153;0.010780;
85.862106;0.039727;0.010645;
85.894493;0.042017;0.010653;
85.926918;0.043628;0.010656;
85.959312;0.039629;0.010710;
85.991730;0.036251;0.010656;
86.024147;0.038373;0.010623;
86.056564;0.041852;0.010683;
86.088989;0.038750;0.010807;
86.121361;0.040728;0.010599;
86.153770;0.043800;0.010614;
86.186188;0.040993;0.010711;
86.218590;0.039332;0.010692;
86.251022;0.041126;0.010670;
86.283424;0.041541;0.010662;
86.315834;0.039105;0.010762;
86.348213;0.037841;0.010690;
86.380630;0.036682;0.010540;
86.413055;0.035687;0.010789;
86.445457;0.036775;0.010711;
86.477867;0.033726;0.010635;
86.510284;0.038187;0.010561;
86.542694;0.040506;0.010735;
86.575104;0.038289;0.010722;
86.607491;0.039835;0.010556;
86.639908;0.037352;0.010802;
86.672318;0.035969;0.010760;
86.704735;0.034101;0.010638;
86.737167;0.032981;0.010547;
86.769554;0.035569;0.010759;
86.801941;0.038733;0.010679;
86.834358;0.038859;0.010606;
86.866768;0.040215;0.010616;
86.899200;0.039802;0.010849;
86.931595;0.040264;0.010591;
86.964012;0.042697;0.010559;
86.996429;0.039477;0.010685;
87.028801;0.043232;0.010679;
87.061241;0.049195;0.010579;
87.093636;0.050357;0.010520;
87.126038;0.053028;0.010647;
87.158455;0.048991;0.010638;
87.190872;0.048488;0.010536;
87.223305;0.046974;0.010648;
87.255661;0.044623;0.010678;
87.288078;0.044869;0.010520;
87.320496;0.048562;0.010512;
87.352913;0.044995;0.010661;
87.385345;0.046343;0.010652;
87.417732;0.048400;0.010501;
87.450150;0.045908;0.010572;
87.482536;0.041968;0.010729;
87.514938;0.046455;0.010587;
87.547371;0.048115;0.010616;
87.579773;0.046326;0.010629;
87.612183;0.044600;0.010706;
87.644600;0.049223;0.010542;
87.677010;0.053186;0.010648;
87.709412;0.056368;0.010705;
87.741806;0.056411;0.010632;
87.774223;0.055469;0.010534;
87.806633;0.052419;0.010644;
87.839043;0.053920;0.010691;
87.871483;0.053488;0.010542;
87.903877;0.055741;0.010496;
87.936256;0.055786;0.010725;
87.968666;0.058307;0.010619;
88.001083;0.058489;0.010466;
88.033516;0.059306;0.010610;
88.065903;0.061012;0.010706;
88.098320;0.059679;0.010527;
88.130737;0.057762;0.010559;
88.163124;0.059898;0.010617;
88.195549;0.063353;0.010663;
88.227943;0.063263;0.010595;
88.260361;0.062916;0.010570;
88.292778;0.059747;0.010671;
88.325188;0.059897;0.010560;
88.357613;0.057109;0.010467;
88.389984;0.058118;0.010518;
88.422401;0.061233;0.010679;
88.454803;0.064362;0.010497;
88.487221;0.060118;0.010491;
88.519653;0.060773;0.010559;
88.552048;0.060123;0.010634;
88.584465;0.062550;0.010464;
88.616844;0.062163;0.010590;
88.649261;0.061683;0.010589;
88.681694;0.057826;0.010563;
88.714088;0.057751;0.010445;
88.746498;0.058001;0.010613;
88.778908;0.057611;0.010652;
88.811325;0.060892;0.010557;
88.843719;0.058375;0.010527;
88.876122;0.058473;0.010647;
88.908531;0.059165;0.010573;
88.940948;0.056942;0.010552;
88.973366;0.058228;0.010617;
89.005791;0.059591;0.010608;
89.038185;0.059221;0.010530;
89.070572;0.060364;0.010519;
89.102989;0.059127;0.010639;
89.135391;0.057701;0.010623;
89.167831;0.060409;0.010500;
89.200226;0.056815;0.010578;
89.232643;0.053657;0.010606;
89.265053;0.054081;0.010566;
89.297432;0.056358;0.010446;
89.329865;0.055106;0.010574;
89.362267;0.054574;0.010631;
89.394669;0.052249;0.010506;
89.427086;0.049755;0.010515;
89.459503;0.050954;0.010561;
89.491928;0.051132;0.010509;
89.524292;0.050085;0.010494;
89.556709;0.050022;0.010546;
89.589127;0.049224;0.010633;
89.621536;0.044322;0.010484;
89.653976;0.048492;0.010488;
89.686363;0.045435;0.010550;
89.718773;0.045050;0.010617;
89.751160;0.045719;0.010365;
89.783577;0.048755;0.010511;
89.816002;0.048942;0.010572;
89.848396;0.048866;0.010568;
89.880814;0.045180;0.010370;
89.913231;0.045185;0.010514;
89.945633;0.046852;0.010574;
89.978043;0.046724;0.010414;
90.010437;0.045800;0.010408;
90.042847;0.051016;0.010596;
90.075256;0.051875;0.010496;
90.107674;0.049376;0.010326;
90.140099;0.044645;0.010562;
90.172508;0.039876;0.010581;
90.204880;0.043737;0.010454;
90.237297;0.043591;0.010455;
90.269714;0.042519;0.010592;
90.302139;0.042142;0.010626;
90.334534;0.037281;0.010422;
90.366951;0.036865;0.010483;
90.399368;0.033216;0.010554;
90.431755;0.035914;0.010532;
90.464180;0.038406;0.010455;
90.496574;0.040800;0.010441;
90.528992;0.041025;0.010531;
90.561409;0.039437;0.010465;
90.593811;0.037369;0.010299;
90.626228;0.042430;0.010523;
90.658615;0.040978;0.010393;
90.691032;0.039327;0.010387;
90.723434;0.039423;0.010433;
90.755852;0.038741;0.010552;
90.788277;0.042288;0.010471;
90.820679;0.044203;0.010374;
90.853096;0.045077;0.010515;
90.885475;0.044768;0.010477;
90.917908;0.044738;0.010292;
90.950317;0.046120;0.010429;
90.982712;0.044872;0.010451;
91.015129;0.044081;0.010466;
91.047539;0.043766;0.010273;
91.079964;0.045662;0.010445;
91.112350;0.047263;0.010494;
91.144753;0.049880;0.010332;
91.177162;0.051943;0.010378;
91.209579;0.052524;0.010446;
91.242004;0.051146;0.010481;
91.274399;0.053113;0.010369;
91.306816;0.055972;0.010385;
91.339203;0.053726;0.010511;
91.371613;0.056821;0.010345;
91.404022;0.055727;0.010261;
91.436447;0.055252;0.010436;
91.468857;0.055581;0.010468;
91.501274;0.055677;0.010331;
91.533676;0.056330;0.010319;
91.566086;0.057777;0.010574;
91.598488;0.060966;0.010375;
91.630898;0.061906;0.010279;
91.663300;0.063495;0.010336;
91.695717;0.063317;0.010498;
91.728149;0.064275;0.010355;
91.760544;0.066166;0.010335;
91.792923;0.067901;0.010486;
91.825340;0.068859;0.010468;
91.857758;0.066879;0.010308;
91.890182;0.062924;0.010296;
91.922577;0.067699;0.010497;
91.954994;0.070809;0.010339;
91.987404;0.072600;0.010327;
92.019791;0.071947;0.010384;
92.052216;0.070383;0.010484;
92.084625;0.067703;0.010265;
92.117027;0.066173;0.010289;
92.149445;0.062583;0.010400;
92.181862;0.063315;0.010413;
92.214287;0.066300;0.010131;
92.246666;0.064602;0.010346;
92.279068;0.064184;0.010428;
92.311478;0.066540;0.010256;
92.343887;0.067779;0.010263;
92.376328;0.071062;0.010359;
92.408722;0.071326;0.010375;
92.441139;0.073143;0.010315;
92.473511;0.071405;0.010366;
92.505928;0.073246;0.010408;
92.538353;0.078192;0.010341;
92.570763;0.076936;0.010247;
92.603165;0.073958;0.010358;
92.635582;0.074657;0.010406;
92.667999;0.070617;0.010298;
92.700394;0.068835;0.010320;
92.732796;0.069454;0.010537;
92.765205;0.070402;0.010410;
92.797623;0.068371;0.010280;
92.830032;0.070574;0.010296;
92.862457;0.068895;0.010443;
92.894859;0.069518;0.010347;
92.927246;0.069458;0.010248;
92.959648;0.068189;0.010457;
92.992065;0.067644;0.010464;
93.024498;0.071547;0.010305;
93.056892;0.069813;0.010294;
93.089310;0.070049;0.010410;
93.121719;0.071746;0.010316;
93.154106;0.069327;0.010242;
93.186539;0.069506;0.010293;
93.218933;0.071201;0.010392;
93.251343;0.069244;0.010229;
93.283752;0.067284;0.010264;
93.316170;0.069654;0.010327;
93.348602;0.071728;0.010392;
93.380974;0.074771;0.010139;
93.413376;0.072639;0.010361;
93.445793;0.073126;0.010415;
93.478210;0.078503;0.010375;
93.510635;0.076940;0.010270;
93.543030;0.079154;0.010294;
93.575447;0.083061;0.010393;
93.607834;0.080371;0.010259;
93.640236;0.075664;0.010191;
93.672676;0.076307;0.010337;
93.705070;0.073853;0.010303;
93.737488;0.077593;0.010163;
93.769897;0.078557;0.010288;
93.802307;0.079978;0.010420;
93.834709;0.081799;0.010305;
93.867111;0.085958;0.010238;
93.899513;0.087191;0.010354;
93.931931;0.089104;0.010360;
93.964348;0.087888;0.010154;
93.996780;0.086856;0.010238;
94.029175;0.086068;0.010346;
94.061554;0.087383;0.010343;
94.093971;0.090222;0.010270;
94.126381;0.092029;0.010268;
94.158821;0.088794;0.010354;
94.191208;0.092201;0.010137;
94.223618;0.093369;0.010227;
94.256035;0.093381;0.010387;
94.288414;0.090859;0.010345;
94.320847;0.094223;0.010205;
94.353241;0.093416;0.010234;
94.385658;0.095425;0.010328;
94.418076;0.094404;0.010175;
94.450478;0.094964;0.010231;
94.482918;0.096480;0.010287;
94.515282;0.097069;0.010229;
94.547699;0.100604;0.010189;
94.580101;0.104609;0.010283;
94.612518;0.106307;0.010353;
94.644951;0.107885;0.010262;
94.677353;0.108202;0.010120;
94.709763;0.105274;0.010253;
94.742142;0.103176;0.010375;
94.774559;0.104546;0.010154;
94.806992;0.101142;0.010230;
94.839378;0.102691;0.010329;
94.871796;0.098985;0.010311;
94.904213;0.101106;0.010076;
94.936623;0.101265;0.010248;
94.969025;0.098442;0.010320;
95.001419;0.092565;0.010238;
95.033836;0.092326;0.010170;
95.066246;0.087439;0.010375;
95.098663;0.087016;0.010302;
95.131088;0.084929;0.010211;
95.163483;0.083616;0.010215;
95.195869;0.081738;0.010357;
95.228279;0.081187;0.010242;
95.260696;0.076923;0.010195;
95.293129;0.077174;0.010313;
95.325523;0.073198;0.010430;
95.357941;0.073673;0.010228;
95.390343;0.071617;0.010213;
95.422729;0.069068;0.010297;
95.455170;0.073155;0.010412;
95.487564;0.072084;0.010252;
95.519966;0.070347;0.010177;
95.552383;0.069761;0.010326;
95.584801;0.062054;0.010190;
95.617226;0.058368;0.010244;
95.649590;0.055698;0.010298;
95.682007;0.055230;0.010265;
95.714424;0.054753;0.010093;
95.746841;0.058212;0.010219;
95.779266;0.057033;0.010218;
95.811661;0.055958;0.010255;
95.844078;0.054946;0.010147;
95.876450;0.052630;0.010201;
95.908867;0.050621;0.010335;
95.941299;0.048637;0.010227;
95.973701;0.051729;0.010169;
96.006111;0.049416;0.010268;
96.038521;0.046791;0.010263;
96.070938;0.049799;0.010058;
96.103340;0.048410;0.010253;
96.135735;0.042658;0.010251;
96.168144;0.045185;0.010269;
96.200562;0.046559;0.010116;
96.232971;0.043190;0.010319;
96.265396;0.046337;0.010244;
96.297806;0.043445;0.010118;
96.330185;0.043346;0.010176;
96.362595;0.041631;0.010258;
96.395012;0.043949;0.010226;
96.427437;0.038180;0.010121;
96.459831;0.043052;0.010221;
96.492249;0.041403;0.010310;
96.524666;0.035133;0.010153;
96.557053;0.034464;0.010116;
96.589478;0.041081;0.010244;
96.621872;0.041551;0.010199;
96.654289;0.042175;0.010167;
96.686707;0.042030;0.010029;
96.719109;0.043501;0.010262;
96.751534;0.038362;0.010117;
96.783913;0.039432;0.010115;
96.816315;0.038698;0.010168;
96.848732;0.042138;0.010253;
96.881149;0.039613;0.010032;
96.913574;0.036908;0.010178;
96.945976;0.033166;0.010150;
96.978386;0.035769;0.010209;
97.010773;0.038221;0.010064;
97.043205;0.037219;0.010190;
97.075623;0.037665;0.010234;
97.108009;0.039775;0.010134;
97.140427;0.041611;0.010019;
97.172836;0.036939;0.010165;
97.205261;0.036695;0.010155;
97.237648;0.036501;0.010051;
97.270050;0.036939;0.010076;
97.302460;0.038076;0.010264;
97.334877;0.040452;0.010215;
97.367287;0.040283;0.010027;
97.399712;0.046738;0.010131;
97.432114;0.046174;0.010246;
97.464500;0.041174;0.010186;
97.496910;0.041182;0.010039;
97.529320;0.039721;0.010138;
97.561745;0.034359;0.010226;
97.594154;0.035412;0.010128;
97.626572;0.039907;0.010095;
97.658974;0.037186;0.010335;
97.691383;0.037716;0.010134;
97.723793;0.037307;0.010041;
97.756180;0.039841;0.010073;
97.788597;0.039267;0.010262;
97.821014;0.038217;0.010093;
97.853439;0.038263;0.010123;
97.885841;0.039138;0.010156;
97.918221;0.034582;0.010164;
97.950638;0.036226;0.010017;
97.983055;0.036245;0.009968;
98.015465;0.036726;0.010195;
98.047882;0.038129;0.010030;
98.080292;0.038203;0.009910;
98.112701;0.037492;0.010180;
98.145081;0.038402;0.010167;
98.177513;0.041137;0.009952;
98.209923;0.035741;0.010016;
98.242325;0.037041;0.010063;
98.274742;0.035492;0.010060;
98.307152;0.034677;0.009904;
98.339584;0.037666;0.010139;
98.371971;0.038751;0.010083;
98.404358;0.040840;0.010071;
98.436775;0.040744;0.009960;
98.469185;0.040597;0.010127;
98.501610;0.039992;0.010078;
98.534019;0.038477;0.009916;
98.566422;0.041259;0.010034;
98.598808;0.037778;0.010112;
98.631226;0.036346;0.010071;
98.663643;0.036813;0.009959;
98.696060;0.037703;0.010134;
98.728462;0.034661;0.010094;
98.760880;0.035482;0.009959;
98.793297;0.034916;0.009920;
98.825691;0.040548;0.010103;
98.858093;0.037363;0.010080;
98.890503;0.039656;0.009960;
98.922920;0.034415;0.010028;
98.955322;0.034642;0.010170;
98.987755;0.038263;0.010056;
99.020157;0.038832;0.009920;
99.052544;0.042080;0.010064;
99.084946;0.039708;0.009959;
99.117363;0.040201;0.010023;
99.149796;0.039141;0.009965;
99.182190;0.038455;0.010071;
99.214607;0.039384;0.010053;
99.247017;0.041996;0.009901;
99.279404;0.041356;0.009932;
99.311836;0.039444;0.010073;
99.344231;0.038089;0.009936;
99.376640;0.038628;0.010015;
99.409050;0.039129;0.010078;
99.441467;0.039285;0.010038;
99.473900;0.038570;0.009884;
99.506271;0.036863;0.009963;
99.538673;0.038128;0.010094;
99.571091;0.036142;0.009958;
99.603508;0.034829;0.009899;
99.635933;0.039019;0.010012;
99.668327;0.035648;0.010045;
99.700745;0.037802;0.009880;
99.733124;0.038872;0.010017;
99.765533;0.041986;0.010043;
99.797974;0.043147;0.010004;
99.830368;0.039914;0.009846;
99.862785;0.036347;0.010056;
99.895187;0.039276;0.010017;
99.927605;0.039546;0.009959;
99.960007;0.038768;0.009824;
99.992409;0.037237;0.010017;
