"Piezo Voltage (V)";"Fine In 1 (V)";"Fine In 2 (V)";
67.032494;0.058260;0.011418;
67.064926;0.058241;0.011328;
67.097321;0.059106;0.011403;
67.129700;0.055699;0.011468;
67.162117;0.058534;0.011348;
67.194534;0.056372;0.011409;
67.226959;0.052602;0.011440;
67.259354;0.050637;0.011380;
67.291771;0.048300;0.011347;
67.324181;0.051588;0.011400;
67.356560;0.046608;0.011490;
67.388992;0.049316;0.011328;
67.421394;0.052958;0.011313;
67.453804;0.050316;0.011458;
67.486214;0.047691;0.011334;
67.518631;0.045728;0.011250;
67.551064;0.041354;0.011350;
67.583427;0.039246;0.011389;
67.615837;0.042748;0.011402;
67.648254;0.046765;0.011357;
67.680664;0.043312;0.011351;
67.713104;0.041234;0.011467;
67.745499;0.043273;0.011312;
67.777901;0.046959;0.011302;
67.810287;0.045288;0.011505;
67.842712;0.043926;0.011327;
67.875130;0.043830;0.011280;
67.907524;0.042396;0.011241;
67.939941;0.041883;0.011430;
67.972359;0.041676;0.011354;
68.004776;0.041793;0.011325;
68.037170;0.045649;0.011381;
68.069565;0.044477;0.011464;
68.101982;0.043098;0.011241;
68.134399;0.044508;0.011387;
68.166801;0.042906;0.011423;
68.199234;0.036718;0.011342;
68.231636;0.038508;0.011258;
68.264008;0.038222;0.011411;
68.296425;0.035620;0.011492;
68.328842;0.038230;0.011295;
68.361275;0.041033;0.011264;
68.393669;0.046581;0.011381;
68.426079;0.045859;0.011336;
68.458496;0.047166;0.011244;
68.490891;0.048699;0.011265;
68.523315;0.048679;0.011497;
68.555702;0.046959;0.011350;
68.588120;0.047336;0.011234;
68.620529;0.053729;0.011390;
68.652946;0.054509;0.011301;
68.685371;0.059916;0.011276;
68.717743;0.062150;0.011203;
68.750153;0.061576;0.011468;
68.782570;0.060175;0.011189;
68.814980;0.063509;0.011184;
68.847412;0.066391;0.011336;
68.879807;0.067568;0.011392;
68.912224;0.072549;0.011098;
68.944603;0.076564;0.011215;
68.977028;0.078110;0.011359;
69.009453;0.083146;0.011335;
69.041847;0.086242;0.011067;
69.074265;0.087588;0.011215;
69.106667;0.087047;0.011384;
69.139091;0.096530;0.011216;
69.171486;0.103946;0.011068;
69.203873;0.107721;0.011304;
69.236290;0.116064;0.011423;
69.268707;0.123570;0.011109;
69.301125;0.133256;0.011233;
69.333549;0.139845;0.011253;
69.365944;0.146124;0.011218;
69.398331;0.155041;0.011140;
69.430748;0.165769;0.011206;
69.463158;0.173707;0.011219;
69.495583;0.184719;0.011123;
69.527985;0.201041;0.011002;
69.560394;0.218122;0.011233;
69.592812;0.229782;0.011122;
69.625198;0.246046;0.010915;
69.657623;0.265013;0.010931;
69.690018;0.284606;0.011116;
69.722435;0.298256;0.010996;
69.754845;0.319862;0.010855;
69.787270;0.344070;0.011109;
69.819672;0.365396;0.011115;
69.852058;0.391137;0.010793;
69.884468;0.419233;0.010805;
69.916878;0.448795;0.010909;
69.949295;0.476165;0.010816;
69.981720;0.507045;0.010616;
70.014114;0.542439;0.010721;
70.046532;0.573381;0.010737;
70.078918;0.608813;0.010598;
70.111351;0.648568;0.010615;
70.143761;0.683200;0.010690;
70.176155;0.725210;0.010573;
70.208572;0.762604;0.010450;
70.240990;0.804724;0.010561;
70.273415;0.854002;0.010612;
70.305801;0.899933;0.010526;
70.338196;0.950606;0.010287;
70.370613;0.992823;0.010395;
70.403015;1.042043;0.010348;
70.435440;1.091723;0.010251;
70.467850;1.146238;0.010263;
70.500267;1.198613;0.010265;
70.532639;1.249961;0.010222;
70.565056;1.299691;0.010010;
70.597473;1.350172;0.010131;
70.629890;1.401692;0.010208;
70.662300;1.456705;0.009984;
70.694710;1.512341;0.009993;
70.727127;1.561059;0.010000;
70.759529;1.619362;0.010005;
70.791939;1.671388;0.009772;
70.824333;1.725181;0.009816;
70.856750;1.779172;0.009907;
70.889160;1.831520;0.009851;
70.921585;1.884705;0.009770;
70.953987;1.928294;0.009722;
70.986374;1.980588;0.009777;
71.018784;2.028716;0.009637;
71.051201;2.076782;0.009542;
71.083618;2.117022;0.009740;
71.116020;2.157823;0.009754;
71.148438;2.197321;0.009568;
71.180855;2.242462;0.009570;
71.213234;2.282238;0.009735;
71.245667;2.317063;0.009440;
71.278061;2.353163;0.009528;
71.310478;2.385238;0.009512;
71.342880;2.414153;0.009562;
71.375298;2.441012;0.009466;
71.407730;2.465397;0.009434;
71.440109;2.483458;0.009483;
71.472504;2.507876;0.009485;
71.504921;2.528318;0.009471;
71.537338;2.546348;0.009409;
71.569771;2.559718;0.009465;
71.602165;2.574032;0.009331;
71.634575;2.584707;0.009350;
71.666962;2.594270;0.009453;
71.699379;2.601301;0.009361;
71.731789;2.613504;0.009395;
71.764198;2.620185;0.009436;
71.796616;2.624331;0.009371;
71.829025;2.621918;0.009337;
71.861443;2.619617;0.009361;
71.893837;2.620453;0.009459;
71.926239;2.615835;0.009416;
71.958649;2.611051;0.009333;
71.991066;2.611590;0.009299;
72.023476;2.602665;0.009430;
72.055908;2.597903;0.009380;
72.088303;2.583239;0.009329;
72.120682;2.571874;0.009300;
72.153099;2.559618;0.009421;
72.185509;2.550277;0.009349;
72.217949;2.538865;0.009208;
72.250343;2.525001;0.009384;
72.282745;2.509099;0.009375;
72.315163;2.492348;0.009275;
72.347549;2.479177;0.009326;
72.379982;2.459644;0.009494;
72.412369;2.440177;0.009398;
72.444786;2.417574;0.009296;
72.477203;2.401154;0.009328;
72.509621;2.381988;0.009424;
72.542053;2.359333;0.009392;
72.574409;2.341136;0.009411;
72.606827;2.315726;0.009383;
72.639244;2.291877;0.009499;
72.671646;2.267728;0.009328;
72.704079;2.244406;0.009398;
72.736481;2.219344;0.009510;
72.768890;2.195547;0.009476;
72.801270;2.176463;0.009433;
72.833687;2.155493;0.009478;
72.866119;2.129098;0.009599;
72.898514;2.110093;0.009493;
72.930923;2.080823;0.009385;
72.963341;2.052904;0.009596;
72.995750;2.029722;0.009541;
73.028160;2.006845;0.009512;
73.060547;1.980373;0.009684;
73.092964;1.951684;0.009647;
73.125374;1.924162;0.009709;
73.157791;1.895932;0.009606;
73.190224;1.869484;0.009841;
73.222610;1.838477;0.009837;
73.254997;1.807934;0.009784;
73.287415;1.779007;0.009704;
73.319824;1.742751;0.009876;
73.352257;1.708828;0.009922;
73.384651;1.677649;0.009805;
73.417068;1.644512;0.009878;
73.449486;1.610530;0.010083;
73.481857;1.572467;0.009972;
73.514297;1.540764;0.010037;
73.546692;1.508190;0.010124;
73.579109;1.470758;0.010047;
73.611511;1.432929;0.010091;
73.643929;1.398840;0.010136;
73.676361;1.363779;0.010308;
73.708717;1.328144;0.010112;
73.741135;1.298103;0.010172;
73.773552;1.258350;0.010282;
73.805969;1.216136;0.010329;
73.838402;1.182330;0.010273;
73.870789;1.145970;0.010360;
73.903206;1.109075;0.010536;
73.935593;1.073024;0.010435;
73.968002;1.033432;0.010385;
74.000427;1.000034;0.010484;
74.032829;0.965833;0.010540;
74.065239;0.933496;0.010546;
74.097656;0.899709;0.010537;
74.130074;0.864956;0.010587;
74.162468;0.833749;0.010687;
74.194862;0.798718;0.010589;
74.227280;0.765708;0.010653;
74.259689;0.733497;0.010758;
74.292099;0.704717;0.010723;
74.324539;0.673637;0.010600;
74.356934;0.644742;0.010811;
74.389313;0.613797;0.010845;
74.421722;0.584053;0.010771;
74.454140;0.556665;0.010839;
74.486572;0.528052;0.010954;
74.518974;0.499932;0.010837;
74.551376;0.478164;0.010803;
74.583794;0.459114;0.010900;
74.616180;0.436599;0.011079;
74.648605;0.414809;0.010882;
74.681000;0.394728;0.010904;
74.713417;0.373677;0.010991;
74.745834;0.356800;0.011015;
74.778244;0.337462;0.010898;
74.810669;0.319245;0.010849;
74.843040;0.302521;0.011191;
74.875458;0.282721;0.010936;
74.907867;0.262179;0.010934;
74.940277;0.251197;0.011074;
74.972710;0.238109;0.011213;
75.005104;0.226000;0.010881;
75.037521;0.212958;0.011027;
75.069901;0.201847;0.011094;
75.102325;0.194431;0.011134;
75.134750;0.182568;0.010863;
75.167145;0.169914;0.011084;
75.199554;0.162250;0.011271;
75.231964;0.153684;0.011068;
75.264381;0.144296;0.010965;
75.296791;0.136633;0.011160;
75.329178;0.128798;0.011195;
75.361588;0.121622;0.010976;
75.394005;0.117408;0.011017;
75.426422;0.117042;0.011163;
75.458847;0.112861;0.011158;
75.491241;0.106740;0.010943;
75.523628;0.101210;0.011251;
75.556046;0.097101;0.011156;
75.588448;0.090878;0.011014;
75.620888;0.086903;0.010912;
75.653282;0.080088;0.011247;
75.685699;0.081015;0.011117;
75.718109;0.083567;0.011003;
75.750496;0.078659;0.011090;
75.782921;0.073293;0.011335;
75.815323;0.071300;0.010998;
75.847725;0.067324;0.010982;
75.880142;0.064484;0.011150;
75.912560;0.062179;0.011235;
75.944969;0.060421;0.011011;
75.977348;0.064260;0.011018;
76.009766;0.060561;0.011241;
76.042183;0.062184;0.011044;
76.074593;0.059029;0.010974;
76.107018;0.063080;0.011045;
76.139420;0.058448;0.011181;
76.171829;0.056146;0.010954;
76.204216;0.057903;0.011005;
76.236641;0.058313;0.011120;
76.269058;0.056050;0.011210;
76.301453;0.047934;0.010917;
76.333870;0.051105;0.010999;
76.366287;0.050280;0.011125;
76.398705;0.049312;0.011119;
76.431099;0.046755;0.010960;
76.463493;0.047823;0.011087;
76.495911;0.046753;0.011174;
76.528313;0.049719;0.010943;
76.560738;0.045295;0.011024;
76.593147;0.048617;0.011155;
76.625565;0.047698;0.011082;
76.657936;0.045492;0.010944;
76.690353;0.043338;0.011089;
76.722771;0.042181;0.011094;
76.755196;0.041252;0.011012;
76.787590;0.045067;0.011039;
76.820007;0.047540;0.011068;
76.852425;0.044337;0.011092;
76.884827;0.045399;0.011076;
76.917236;0.044137;0.011071;
76.949631;0.045507;0.011081;
76.982048;0.040979;0.011056;
77.014458;0.044957;0.010953;
77.046883;0.043419;0.011088;
77.079285;0.043610;0.011172;
77.111671;0.042829;0.010989;
77.144081;0.040066;0.010967;
77.176491;0.038694;0.011103;
77.208916;0.042271;0.011014;
77.241318;0.044160;0.010975;
77.273735;0.046903;0.011088;
77.306152;0.047669;0.011088;
77.338531;0.050328;0.010996;
77.370964;0.046733;0.011030;
77.403366;0.044206;0.011009;
77.435776;0.045318;0.011074;
77.468178;0.045489;0.010971;
77.500595;0.046774;0.010985;
77.533028;0.045364;0.011051;
77.565407;0.048785;0.011034;
77.597801;0.046057;0.010967;
77.630219;0.043561;0.011013;
77.662636;0.047223;0.011070;
77.695061;0.045524;0.011057;
77.727455;0.045235;0.011006;
77.759872;0.046144;0.011080;
77.792259;0.040462;0.011044;
77.824677;0.042531;0.010947;
77.857086;0.043860;0.011040;
77.889496;0.042399;0.011106;
77.921913;0.042071;0.010914;
77.954323;0.043307;0.010916;
77.986740;0.039931;0.011044;
78.019135;0.037088;0.011074;
78.051544;0.036184;0.011019;
78.083946;0.041935;0.010928;
78.116356;0.040538;0.011117;
78.148773;0.043169;0.011051;
78.181206;0.044540;0.010895;
78.213600;0.042578;0.011048;
78.245979;0.041062;0.011159;
78.278397;0.043760;0.010911;
78.310806;0.046334;0.010919;
78.343231;0.044932;0.011022;
78.375641;0.045189;0.011072;
78.408043;0.046601;0.010953;
78.440460;0.048258;0.010962;
78.472847;0.051044;0.011007;
78.505272;0.049974;0.010926;
78.537666;0.048506;0.010812;
78.570084;0.050747;0.011047;
78.602501;0.050116;0.011125;
78.634918;0.048893;0.010942;
78.667343;0.043259;0.010922;
78.699715;0.038622;0.011052;
78.732124;0.040400;0.011032;
78.764526;0.045350;0.010860;
78.796944;0.044162;0.010995;
78.829376;0.042071;0.011040;
78.861778;0.041631;0.010933;
78.894188;0.041518;0.010870;
78.926567;0.044939;0.010983;
78.958984;0.048879;0.011024;
78.991409;0.047039;0.010907;
79.023811;0.045688;0.010927;
79.056221;0.043937;0.011052;
79.088638;0.042708;0.010979;
79.121048;0.041142;0.010911;
79.153450;0.039581;0.010965;
79.185844;0.039237;0.010979;
79.218262;0.041672;0.010878;
79.250671;0.042021;0.010902;
79.283089;0.041803;0.011001;
79.315514;0.042698;0.010951;
79.347908;0.039659;0.010882;
79.380295;0.038713;0.010841;
79.412712;0.036181;0.011023;
79.445122;0.038719;0.010936;
79.477554;0.034737;0.010873;
79.509949;0.036833;0.010921;
79.542366;0.032363;0.010952;
79.574783;0.035043;0.010870;
79.607155;0.039811;0.010912;
79.639595;0.041179;0.011133;
79.671989;0.039668;0.010977;
79.704391;0.039493;0.010849;
79.736809;0.039816;0.010945;
79.769226;0.036464;0.011086;
79.801659;0.036962;0.010877;
79.834015;0.042362;0.010878;
79.866432;0.035607;0.010972;
79.898849;0.036624;0.010953;
79.931267;0.040045;0.010928;
79.963699;0.039198;0.010928;
79.996086;0.038630;0.010972;
80.028503;0.036964;0.010892;
80.060890;0.039326;0.010804;
80.093292;0.037790;0.010926;
80.125725;0.035564;0.010966;
80.158127;0.038791;0.010851;
80.190536;0.039578;0.010882;
80.222954;0.037329;0.010980;
80.255363;0.041653;0.010979;
80.287766;0.042799;0.010946;
80.320160;0.043734;0.010975;
80.352577;0.043714;0.011023;
80.384987;0.048251;0.010927;
80.417397;0.048010;0.010823;
80.449837;0.044437;0.011096;
80.482231;0.036787;0.011010;
80.514610;0.034779;0.010876;
80.547020;0.041460;0.010872;
80.579437;0.038983;0.010992;
80.611870;0.038924;0.010900;
80.644257;0.039216;0.010835;
80.676674;0.042301;0.011001;
80.709091;0.038581;0.011024;
80.741478;0.039839;0.010851;
80.773903;0.042185;0.010783;
80.806297;0.040702;0.011112;
80.838715;0.039153;0.010924;
80.871132;0.036454;0.010799;
80.903542;0.038890;0.010868;
80.935966;0.038002;0.011001;
80.968338;0.040186;0.010859;
81.000755;0.041935;0.010775;
81.033157;0.044264;0.010916;
81.065575;0.040512;0.010954;
81.098007;0.039934;0.010696;
81.130402;0.039007;0.010839;
81.162819;0.041382;0.010948;
81.195198;0.042815;0.010903;
81.227615;0.042601;0.010771;
81.260048;0.042045;0.010848;
81.292442;0.040520;0.010989;
81.324852;0.042449;0.010781;
81.357262;0.041029;0.010853;
81.389679;0.038450;0.010953;
81.422073;0.037773;0.010845;
81.454475;0.038030;0.010814;
81.486885;0.038381;0.010871;
81.519302;0.040167;0.011011;
81.551720;0.038714;0.010892;
81.584145;0.037200;0.010766;
81.616539;0.040716;0.010895;
81.648926;0.038742;0.011002;
81.681335;0.039494;0.010814;
81.713745;0.040990;0.010814;
81.746185;0.040020;0.011033;
81.778580;0.038628;0.010988;
81.810997;0.038106;0.010713;
81.843399;0.039558;0.010839;
81.875793;0.038398;0.010945;
81.908218;0.041041;0.010841;
81.940620;0.038533;0.010745;
81.973022;0.032843;0.010858;
82.005440;0.035219;0.010912;
82.037857;0.038597;0.010846;
82.070282;0.037960;0.010779;
82.102646;0.038064;0.010979;
82.135063;0.037651;0.010863;
82.167480;0.039743;0.010839;
82.199890;0.038541;0.010724;
82.232315;0.039524;0.010965;
82.264717;0.037025;0.010786;
82.297127;0.035859;0.010863;
82.329514;0.039385;0.010789;
82.361931;0.033639;0.010809;
82.394356;0.032590;0.010726;
82.426750;0.034783;0.010817;
82.459167;0.035809;0.010828;
82.491585;0.039720;0.010877;
82.524002;0.038326;0.010759;
82.556396;0.035525;0.010871;
82.588791;0.036975;0.010953;
82.621201;0.039324;0.010800;
82.653610;0.041757;0.010805;
82.686028;0.042311;0.010883;
82.718452;0.040652;0.010915;
82.750862;0.038187;0.010692;
82.783234;0.041614;0.010887;
82.815651;0.040733;0.010929;
82.848068;0.037373;0.010832;
82.880493;0.035923;0.010761;
82.912888;0.035338;0.010900;
82.945305;0.040118;0.010836;
82.977722;0.040931;0.010826;
83.010109;0.039176;0.010776;
83.042534;0.038925;0.010852;
83.074928;0.041293;0.010750;
83.107346;0.041600;0.010809;
83.139755;0.038369;0.010835;
83.172173;0.036073;0.010875;
83.204582;0.034391;0.010758;
83.236969;0.035674;0.010797;
83.269379;0.038206;0.010811;
83.301788;0.037964;0.010819;
83.334206;0.038408;0.010765;
83.366631;0.040142;0.010744;
83.399033;0.038201;0.010880;
83.431450;0.036742;0.010756;
83.463829;0.033901;0.010758;
83.501953;0.036490;0.010753;
83.528664;0.035335;0.010881;
83.561066;0.040936;0.010679;
83.593475;0.042488;0.010749;
83.625893;0.041480;0.010793;
83.658318;0.044265;0.010852;
83.690704;0.040162;0.010764;
83.723099;0.042658;0.010792;
83.755516;0.041881;0.010866;
83.787933;0.041660;0.010851;
83.820358;0.045960;0.010747;
83.852753;0.044793;0.010840;
83.885170;0.045387;0.010869;
83.917557;0.041585;0.010708;
83.949959;0.040821;0.010725;
83.982376;0.037217;0.010855;
84.014801;0.037471;0.010769;
84.047211;0.039417;0.010727;
84.079620;0.038389;0.010794;
84.112030;0.036790;0.010814;
84.144432;0.036502;0.010787;
84.176842;0.037206;0.010710;
84.209236;0.040821;0.010904;
84.241653;0.040355;0.010768;
84.274071;0.035870;0.010719;
84.306496;0.034627;0.010787;
84.338898;0.032882;0.010926;
84.371277;0.035673;0.010800;
84.403694;0.036809;0.010711;
84.436104;0.034968;0.010774;
84.468529;0.032220;0.010792;
84.500931;0.035750;0.010674;
84.533340;0.034064;0.010786;
84.565758;0.029767;0.010834;
84.598137;0.027571;0.010736;
84.630569;0.030437;0.010721;
84.662979;0.029622;0.010743;
84.695381;0.030465;0.010874;
84.727798;0.036494;0.010728;
84.760201;0.040466;0.010780;
84.792641;0.040984;0.010761;
84.825012;0.041682;0.010837;
84.857422;0.040751;0.010664;
84.889824;0.043355;0.010748;
84.922241;0.037005;0.010694;
84.954674;0.036385;0.010773;
84.987076;0.037272;0.010687;
85.019485;0.042296;0.010740;
85.051865;0.043939;0.010846;
85.084282;0.039957;0.010724;
85.116707;0.041723;0.010694;
85.149101;0.041892;0.010769;
85.181519;0.040273;0.010805;
85.213936;0.043807;0.010643;
85.246346;0.037140;0.010770;
85.278748;0.035042;0.010711;
85.311142;0.033538;0.010760;
85.343559;0.036599;0.010782;
85.375969;0.035594;0.010732;
85.408386;0.034760;0.010691;
85.440811;0.035828;0.010659;
85.473206;0.035882;0.010676;
85.505592;0.041083;0.010771;
85.538002;0.043692;0.010769;
85.570419;0.042617;0.010708;
85.602852;0.037086;0.010823;
85.635246;0.038092;0.010843;
85.667664;0.035735;0.010675;
85.700066;0.039886;0.010576;
85.732452;0.037545;0.010722;
85.764893;0.035606;0.010778;
85.797287;0.033537;0.010673;
85.829689;0.035238;0.010737;
85.862106;0.037916;0.010842;
85.894524;0.040058;0.010701;
85.926956;0.040981;0.010582;
85.959312;0.039599;0.010672;
85.991730;0.040938;0.010729;
86.024147;0.037613;0.010651;
86.056564;0.040959;0.010644;
86.088989;0.040296;0.010759;
86.121384;0.037539;0.010720;
86.153801;0.039258;0.010584;
86.186188;0.036191;0.010668;
86.218590;0.032362;0.010749;
86.251022;0.034281;0.010721;
86.283424;0.033410;0.010557;
86.315834;0.037717;0.010755;
86.348251;0.038416;0.010702;
86.380661;0.038569;0.010647;
86.413063;0.033880;0.010685;
86.445457;0.037864;0.010783;
86.477867;0.035418;0.010667;
86.510284;0.035613;0.010559;
86.542694;0.036533;0.010732;
86.575134;0.037930;0.010705;
86.607529;0.040118;0.010646;
86.639908;0.043328;0.010509;
86.672318;0.046487;0.010734;
86.704735;0.045060;0.010819;
86.737167;0.040686;0.010525;
86.769554;0.044605;0.010628;
86.801971;0.044280;0.010833;
86.834389;0.045337;0.010702;
86.866768;0.043492;0.010491;
86.899200;0.043051;0.010693;
86.931595;0.040805;0.010853;
86.964012;0.040900;0.010578;
86.996429;0.038707;0.010543;
87.028831;0.040343;0.010665;
87.061264;0.039802;0.010681;
87.093636;0.041177;0.010477;
87.126038;0.042421;0.010646;
87.158455;0.039671;0.010805;
87.190872;0.037084;0.010559;
87.223305;0.036323;0.010584;
87.255699;0.034912;0.010703;
87.288109;0.038461;0.010780;
87.320496;0.039363;0.010513;
87.352913;0.043249;0.010578;
87.385345;0.047899;0.010754;
87.417732;0.044584;0.010611;
87.450150;0.046087;0.010565;
87.482559;0.043527;0.010634;
87.514977;0.046415;0.010743;
87.547371;0.046943;0.010576;
87.579773;0.045854;0.010603;
87.612183;0.047174;0.010667;
87.644600;0.040922;0.010723;
87.677010;0.037649;0.010534;
87.709442;0.035645;0.010728;
87.741837;0.035831;0.010666;
87.774223;0.036443;0.010673;
87.806633;0.038619;0.010524;
87.839043;0.043390;0.010728;
87.871483;0.041263;0.010659;
87.903877;0.037708;0.010540;
87.936295;0.040304;0.010513;
87.968697;0.042226;0.010638;
88.001083;0.041782;0.010684;
88.033516;0.041200;0.010518;
88.065903;0.040665;0.010613;
88.098320;0.040717;0.010657;
88.130737;0.038271;0.010572;
88.163155;0.037524;0.010565;
88.195580;0.037725;0.010566;
88.227943;0.039596;0.010621;
88.260361;0.044687;0.010530;
88.292778;0.044549;0.010524;
88.325188;0.047163;0.010703;
88.357613;0.047565;0.010620;
88.390015;0.049898;0.010485;
88.422424;0.043308;0.010608;
88.454803;0.045054;0.010642;
88.487228;0.047225;0.010459;
88.519653;0.047427;0.010483;
88.552048;0.044940;0.010623;
88.584465;0.046916;0.010698;
88.616875;0.048618;0.010434;
88.649284;0.047771;0.010563;
88.681694;0.047553;0.010649;
88.714088;0.043685;0.010514;
88.746498;0.042428;0.010565;
88.778908;0.044235;0.010591;
88.811325;0.048354;0.010659;
88.843750;0.047861;0.010535;
88.876160;0.048933;0.010545;
88.908531;0.043667;0.010588;
88.940948;0.043572;0.010519;
88.973366;0.042515;0.010513;
89.005791;0.041876;0.010590;
89.038185;0.041126;0.010608;
89.070602;0.045484;0.010577;
89.103020;0.042501;0.010561;
89.135406;0.045267;0.010593;
89.167831;0.045313;0.010557;
89.200226;0.041616;0.010578;
89.232643;0.044838;0.010468;
89.265053;0.047250;0.010629;
89.297462;0.048751;0.010530;
89.329887;0.044113;0.010501;
89.362267;0.039253;0.010519;
89.394669;0.038966;0.010611;
89.427086;0.037062;0.010531;
89.459503;0.043247;0.010486;
89.491928;0.039127;0.010591;
89.524330;0.040524;0.010583;
89.556740;0.038171;0.010490;
89.589127;0.041226;0.010447;
89.621559;0.039664;0.010716;
89.653976;0.037722;0.010440;
89.686363;0.034386;0.010428;
89.718773;0.033183;0.010562;
89.751190;0.035967;0.010564;
89.783615;0.038609;0.010507;
89.816002;0.042823;0.010443;
89.848396;0.040977;0.010624;
89.880814;0.038190;0.010497;
89.913231;0.038137;0.010470;
89.945633;0.041176;0.010557;
89.978058;0.037708;0.010595;
90.010468;0.040587;0.010459;
90.042847;0.042383;0.010529;
90.075256;0.041703;0.010557;
90.107674;0.041167;0.010575;
90.140099;0.039826;0.010471;
90.172508;0.042409;0.010580;
90.204910;0.042309;0.010568;
90.237328;0.041898;0.010530;
90.269730;0.042506;0.010367;
90.302139;0.041495;0.010596;
90.334534;0.041676;0.010639;
90.366951;0.042499;0.010371;
90.399368;0.042556;0.010487;
90.431793;0.043158;0.010562;
90.464195;0.037842;0.010480;
90.496574;0.033931;0.010361;
90.528992;0.033946;0.010555;
90.561409;0.034243;0.010605;
90.593811;0.038127;0.010503;
90.626228;0.038389;0.010471;
90.658646;0.039687;0.010559;
90.691055;0.040422;0.010456;
90.723434;0.042950;0.010482;
90.755867;0.044486;0.010523;
90.788277;0.040859;0.010536;
90.820679;0.042765;0.010476;
90.853096;0.041151;0.010454;
90.885506;0.039867;0.010447;
90.917938;0.039221;0.010534;
90.950317;0.040289;0.010510;
90.982712;0.038176;0.010450;
91.015129;0.035378;0.010532;
91.047539;0.037798;0.010510;
91.079964;0.041353;0.010363;
91.112373;0.040806;0.010513;
91.144775;0.041427;0.010529;
91.177162;0.042174;0.010468;
91.209579;0.044789;0.010300;
91.242004;0.045900;0.010506;
91.274399;0.044143;0.010574;
91.306816;0.042505;0.010339;
91.339233;0.045017;0.010437;
91.371651;0.043411;0.010535;
91.404045;0.048531;0.010455;
91.436447;0.046759;0.010411;
91.468857;0.045506;0.010417;
91.501274;0.044022;0.010539;
91.533676;0.048689;0.010465;
91.566109;0.049777;0.010286;
91.598511;0.048095;0.010528;
91.630898;0.045378;0.010386;
91.663300;0.046092;0.010423;
91.695717;0.046149;0.010369;
91.728149;0.047149;0.010511;
91.760544;0.052997;0.010421;
91.792961;0.054179;0.010296;
91.825371;0.053544;0.010444;
91.857758;0.052146;0.010564;
91.890190;0.052653;0.010364;
91.922577;0.053809;0.010334;
91.954994;0.057803;0.010485;
91.987404;0.057480;0.010474;
92.019821;0.059218;0.010360;
92.052254;0.060367;0.010430;
92.084625;0.062160;0.010509;
92.117027;0.063542;0.010278;
92.149445;0.066457;0.010332;
92.181862;0.066664;0.010390;
92.214287;0.064071;0.010473;
92.246681;0.066222;0.010348;
92.279099;0.065218;0.010314;
92.311478;0.068439;0.010444;
92.343887;0.069037;0.010416;
92.376328;0.071450;0.010155;
92.408722;0.071379;0.010356;
92.441139;0.071992;0.010524;
92.473541;0.074605;0.010183;
92.505959;0.076421;0.010246;
92.538361;0.080958;0.010438;
92.570763;0.077138;0.010384;
92.603165;0.079715;0.010284;
92.635582;0.079274;0.010297;
92.667999;0.080575;0.010390;
92.700432;0.078795;0.010368;
92.732819;0.080497;0.010193;
92.765205;0.079932;0.010414;
92.797623;0.081630;0.010311;
92.830032;0.082112;0.010263;
92.862457;0.084041;0.010264;
92.894859;0.087191;0.010482;
92.927269;0.088328;0.010312;
92.959686;0.092490;0.010218;
92.992065;0.089402;0.010295;
93.024498;0.093007;0.010369;
93.056892;0.094464;0.010292;
93.089310;0.098418;0.010286;
93.121719;0.101464;0.010407;
93.154129;0.100469;0.010386;
93.186569;0.101584;0.010259;
93.218933;0.096362;0.010353;
93.251343;0.094610;0.010440;
93.283752;0.091232;0.010192;
93.316170;0.096302;0.010273;
93.348602;0.097633;0.010300;
93.381004;0.097167;0.010391;
93.413406;0.096249;0.010281;
93.445793;0.101858;0.010225;
93.478210;0.103613;0.010425;
93.510635;0.101101;0.010413;
93.543030;0.102353;0.010196;
93.575447;0.100335;0.010314;
93.607864;0.101259;0.010362;
93.640274;0.100767;0.010267;
93.672676;0.099936;0.010189;
93.705070;0.105066;0.010379;
93.737488;0.105027;0.010351;
93.769897;0.108308;0.010130;
93.802307;0.108964;0.010345;
93.834740;0.108328;0.010356;
93.867134;0.105279;0.010307;
93.899513;0.104173;0.010181;
93.931931;0.102728;0.010364;
93.964348;0.105718;0.010315;
93.996780;0.106806;0.010270;
94.029175;0.107796;0.010196;
94.061584;0.107460;0.010358;
94.093994;0.105282;0.010346;
94.126381;0.105095;0.010236;
94.158821;0.102938;0.010290;
94.191208;0.102301;0.010317;
94.223618;0.101762;0.010279;
94.256035;0.101691;0.010220;
94.288452;0.101731;0.010308;
94.320885;0.100690;0.010302;
94.353241;0.101209;0.010203;
94.385658;0.096888;0.010212;
94.418076;0.096339;0.010406;
94.450478;0.092482;0.010271;
94.482918;0.091806;0.010201;
94.515312;0.089920;0.010310;
94.547729;0.091486;0.010382;
94.580101;0.093973;0.010169;
94.612518;0.094074;0.010267;
94.644951;0.092612;0.010316;
94.677353;0.092327;0.010338;
94.709763;0.086565;0.010082;
94.742172;0.082750;0.010324;
94.774590;0.076438;0.010362;
94.806992;0.076138;0.010297;
94.839378;0.076835;0.010177;
94.871796;0.074656;0.010339;
94.904213;0.073800;0.010436;
94.936623;0.071683;0.010149;
94.969063;0.067713;0.010258;
95.001450;0.066227;0.010324;
95.033836;0.065572;0.010285;
95.066246;0.064227;0.010138;
95.098663;0.066878;0.010341;
95.131088;0.066684;0.010237;
95.163483;0.065465;0.010245;
95.195900;0.062755;0.010276;
95.228317;0.061136;0.010388;
95.260696;0.056078;0.010261;
95.293129;0.050631;0.010166;
95.325523;0.051633;0.010312;
95.357941;0.057822;0.010293;
95.390343;0.054123;0.010299;
95.422760;0.054876;0.010198;
95.455185;0.051395;0.010293;
95.487564;0.050108;0.010244;
95.519966;0.052621;0.010160;
95.552383;0.049834;0.010187;
95.584801;0.050572;0.010397;
95.617226;0.047479;0.010260;
95.649620;0.046964;0.010146;
95.682037;0.046311;0.010265;
95.714424;0.047488;0.010406;
95.746849;0.045374;0.010148;
95.779266;0.046175;0.010114;
95.811661;0.042329;0.010319;
95.844078;0.042542;0.010293;
95.876488;0.043620;0.010046;
95.908905;0.043685;0.010191;
95.941299;0.045271;0.010257;
95.973701;0.044814;0.010188;
96.006111;0.043560;0.010080;
96.038521;0.042680;0.010249;
96.070938;0.043478;0.010276;
96.103363;0.043816;0.010187;
96.135765;0.044990;0.010145;
96.168144;0.043782;0.010268;
96.200562;0.042366;0.010219;
96.232971;0.039997;0.010105;
96.265396;0.038686;0.010255;
96.297806;0.038810;0.010300;
96.330208;0.038071;0.010186;
96.362625;0.039763;0.010147;
96.395035;0.037590;0.010353;
96.427437;0.038797;0.010242;
96.459831;0.041574;0.010125;
96.492249;0.041969;0.010116;
96.524666;0.045838;0.010313;
96.557091;0.041585;0.010179;
96.589485;0.038624;0.010196;
96.621872;0.039283;0.010128;
96.654289;0.039556;0.010328;
96.686707;0.038567;0.010136;
96.719109;0.042005;0.010088;
96.751534;0.042601;0.010240;
96.783943;0.040763;0.010135;
96.816353;0.042200;0.010160;
96.848732;0.041255;0.010164;
96.881165;0.038940;0.010251;
96.913574;0.041888;0.010201;
96.945976;0.038297;0.010161;
96.978386;0.038726;0.010164;
97.010803;0.041267;0.010211;
97.043236;0.043470;0.010096;
97.075623;0.039468;0.010135;
97.108009;0.036007;0.010196;
97.140427;0.035903;0.010193;
97.172836;0.032002;0.010091;
97.205261;0.031293;0.010150;
97.237671;0.034602;0.010221;
97.270073;0.038533;0.010112;
97.302460;0.042545;0.010089;
97.334877;0.042201;0.010162;
97.367287;0.038898;0.010178;
97.399712;0.036288;0.010071;
97.432114;0.038961;0.010114;
97.464531;0.041412;0.010236;
97.496948;0.042701;0.010165;
97.529343;0.041817;0.010075;
97.561745;0.039819;0.010117;
97.594154;0.036491;0.010163;
97.626572;0.038260;0.010137;
97.658974;0.035711;0.010081;
97.691406;0.037077;0.010233;
97.723808;0.039660;0.010096;
97.756180;0.041683;0.009983;
97.788597;0.040187;0.010106;
97.821014;0.036090;0.010224;
97.853439;0.035147;0.010017;
97.885841;0.035787;0.009948;
97.918251;0.037255;0.010214;
97.950668;0.040023;0.010004;
97.983055;0.036203;0.010041;
98.015488;0.036319;0.010031;
98.047882;0.033864;0.010233;
98.080292;0.035107;0.010005;
98.112701;0.037467;0.010073;
98.145119;0.038038;0.010142;
98.177551;0.043860;0.010183;
98.209923;0.042549;0.009936;
98.242325;0.039737;0.009987;
98.274742;0.042286;0.010198;
98.307152;0.039226;0.010156;
98.339584;0.036263;0.009973;
98.371979;0.035807;0.010047;
98.404396;0.034059;0.010206;
98.436775;0.036220;0.009976;
98.469185;0.033736;0.009897;
98.501610;0.037307;0.010131;
98.534019;0.040922;0.010135;
98.566422;0.040093;0.010044;
98.598839;0.040339;0.010048;
98.631256;0.044351;0.010164;
98.663658;0.043017;0.010099;
98.696060;0.039396;0.009861;
98.728462;0.036862;0.010129;
98.760880;0.036543;0.010209;
98.793297;0.035825;0.010020;
98.825729;0.038554;0.009924;
98.858116;0.039677;0.010129;
98.890503;0.040069;0.010091;
98.922920;0.039795;0.009932;
98.955322;0.039609;0.010092;
98.987755;0.035133;0.010163;
99.020157;0.037950;0.010049;
99.052567;0.037888;0.009909;
99.084984;0.040315;0.010142;
99.117363;0.039032;0.010084;
99.149796;0.038939;0.009918;
99.182190;0.042870;0.010006;
99.214607;0.038443;0.010127;
99.247017;0.039010;0.009975;
99.279427;0.037599;0.009931;
99.311867;0.043266;0.010021;
99.344231;0.041600;0.010060;
99.376640;0.041783;0.009873;
99.409050;0.041575;0.009917;
99.441467;0.043881;0.010046;
99.473900;0.042372;0.010041;
99.506287;0.040549;0.009854;
99.538704;0.039135;0.009999;
99.571091;0.042338;0.010066;
99.603508;0.038884;0.009949;
99.635933;0.036373;0.009882;
99.668327;0.039752;0.010044;
99.700745;0.042267;0.009946;
99.733162;0.042575;0.009624;
99.765572;0.039757;0.009662;
99.797974;0.043545;0.009797;
99.830368;0.041182;0.009753;
99.862785;0.040051;0.009684;
99.895187;0.042789;0.009820;
99.927605;0.045649;0.009802;
99.960037;0.048640;0.009685;
99.992432;0.047484;0.009655;
